<svg width="704" height="181" viewBox="0 0 704 181" fill="none" xmlns="http://www.w3.org/2000/svg">
<path d="M687.167 38.1266C688.895 32.7551 689.808 26.8799 688.488 21.4068C687.269 16.1369 684.321 13.0977 680.559 9.65219C678.932 8.23419 674.154 3.16746 679.442 3.06587C682.593 2.96428 685.846 3.57381 688.691 4.78864C692.858 6.613 696.111 9.85537 697.839 13.9062C700.787 20.391 700.077 27.8873 698.65 34.6769C697.024 42.6812 693.771 50.2834 690.314 57.5766C687.57 63.2486 683.094 70.6477 684.521 77.234C685.706 82.4997 691.031 85.3442 695.198 82.906C701.602 79.1557 702.316 69.5302 701.704 63.5534C701.398 67.1005 697.737 83.6172 691.129 79.2573C689.095 78.0425 688.789 75.7102 688.789 73.5853C688.891 71.253 689.197 68.9249 689.605 66.5926C691.333 58.3851 695.3 50.9903 698.145 43.1849C701.398 34.2663 704.957 23.3243 701.704 13.902C697.941 3.26058 683.914 -0.891856 673.543 0.221385C671.916 0.322974 669.071 0.729326 668.663 2.75263C668.357 4.27223 669.882 5.79182 670.901 6.70612C675.067 10.0501 680.049 12.1792 682.797 17.0428C685.035 20.9963 685.744 25.6566 685.239 30.1138C684.122 41.7669 677.106 52.6072 669.682 61.3227C663.584 68.5186 655.854 75.4054 646.299 79.2573C640.706 81.3864 622.104 85.9452 624.139 76.0149C625.154 71.253 630.033 68.1122 634.509 65.1746C652.3 53.5215 662.569 39.9425 670.804 22.4143C664.195 36.3996 652.707 48.7596 638.17 57.3734C631.766 61.1237 624.546 64.4677 620.38 70.1397C616.617 75.3081 617.535 81.5896 624.954 83.3124C652.096 90.9146 680.457 57.5808 687.167 38.1266ZM615.904 77.8435C614.277 71.562 614.073 64.8741 613.058 58.4909C611.839 50.5882 610.315 42.787 608.382 35.0832C607.567 31.1297 602.687 14.211 598.623 25.0513C595.88 33.5636 597.2 42.9859 595.982 51.803C595.778 52.2093 595.676 51.803 595.472 50.6898C594.657 42.787 593.947 34.4779 594.151 26.4736C594.967 -4.32894 606.96 3.67539 613.874 26.7783C615.908 33.2631 617.331 39.951 617.84 46.7405C618.35 53.3268 618.656 56.6708 619.773 66.6011C619.773 47.7564 618.554 32.9583 612.757 17.1528C606.454 -0.273858 595.88 -5.95012 593.743 17.0512C592.932 24.7508 593.034 32.4546 593.641 40.1542C593.845 43.9045 594.253 47.7522 594.457 51.5025C594.661 55.0496 594.559 58.6983 593.845 62.2412C593.234 65.7884 591.913 71.0583 587.951 72.0699C583.479 73.1832 580.022 69.3355 577.682 66.0931C574.734 62.038 571.885 57.6824 569.039 53.53C567.005 50.3892 564.971 47.2484 562.941 44.1077C558.163 36.6113 553.589 29.1106 549.113 21.4111C544.947 14.1179 540.776 6.71882 535.591 0.030908C535.591 0.030908 558.464 42.2833 571.987 62.1439C574.327 65.691 576.968 69.1366 580.119 72.0742C582.154 73.8985 584.489 75.5197 587.033 76.7345C589.271 77.7462 591.403 77.1409 592.932 75.1133C594.355 73.1874 595.068 70.453 595.676 68.1207C596.385 65.3862 596.793 62.546 596.997 59.71C597.404 53.2252 597.2 46.7405 597.71 40.2558C597.914 38.3298 598.725 29.6144 601.876 32.1498C603.401 34.0758 604.114 36.5055 605.027 38.8378C608.281 48.3617 609.805 57.2803 611.126 67.2106C611.941 72.3789 612.039 79.7737 616.311 83.6256C617.428 84.7389 619.768 84.8405 620.278 83.1177C618.24 85.141 616.409 79.2658 615.904 77.8435ZM493.5 45.1151C503.055 28.0905 515.46 15.121 533.96 6.81194C549.007 0.0224372 557.445 1.23727 559.883 8.22995C561.102 11.7771 561.509 16.0311 558.766 22.3127C555.92 28.5942 529.895 61.5259 507.833 84.4256C520.54 73.7842 565.476 21.8047 567.612 13.394C571.676 -2.51304 552.362 -3.02099 532.639 5.49129C517.592 11.976 499.802 25.2503 490.043 41.259C484.148 51.0877 481.604 63.9555 484.857 74.8001C486.484 80.1716 489.839 87.1601 496.549 82.4997C502.647 78.2457 505.697 71.8583 510.78 65.3735C510.78 65.3735 491.363 86.3473 488.921 71.2487C487.503 62.7492 489.231 52.9205 493.5 45.1151ZM448.873 37.7203C453.243 47.041 465.648 54.7448 472.766 62.0381C475.917 65.2804 479.476 68.3196 482.016 71.9683C483.439 74.0975 485.473 80.7854 480.491 79.5663C477.136 78.5547 476.627 74.6012 476.423 72.1673C475.709 74.9017 476.219 78.1441 477.947 80.9843C480.691 85.4415 487.095 85.5431 489.129 81.5938C491.062 77.8435 486.687 72.8784 483.842 70.144C476.928 63.3545 469.912 56.6666 463.406 49.5765C457.813 43.4981 451.005 36.2007 451.612 28.3995C452.322 21.0047 458.322 16.5433 463.304 11.6797C465.236 9.85537 467.169 8.03101 469.097 6.30824C471.029 4.38229 473.773 2.25316 475.807 0.128262C469.606 4.38228 461.775 9.0469 456.594 14.1136C450.398 19.8872 444.197 28.7001 448.873 37.7203ZM437.589 38.1266C439.318 32.7551 440.231 26.8799 438.91 21.4068C437.691 16.1369 434.739 13.0977 430.981 9.65219C429.354 8.23419 424.576 3.16746 429.864 3.06587C433.015 2.96428 436.268 3.57381 439.114 4.78864C443.28 6.613 446.533 9.85537 448.262 13.9062C451.209 20.391 450.5 27.8873 449.077 34.6769C447.45 42.6812 444.197 50.2834 440.74 57.5766C437.997 63.2486 433.521 70.6477 434.943 77.234C436.06 82.1992 440.94 85.6447 445.62 82.906C452.024 79.1557 452.738 69.5302 452.126 63.5534C451.82 67.1005 448.16 83.6172 441.551 79.2573C439.517 78.0425 439.211 75.7102 439.211 73.5853C439.313 71.253 439.619 68.9249 440.023 66.5926C441.751 58.3851 445.718 50.9903 448.563 43.1849C451.816 34.2663 455.375 23.3243 452.122 13.902C448.359 3.26058 434.332 -0.891856 423.961 0.221385C422.334 0.322974 419.489 0.729326 419.081 2.75263C418.775 4.27223 420.3 5.79182 421.319 6.70612C425.485 10.0501 430.467 12.1792 433.215 17.0428C435.453 20.9963 436.162 25.6566 435.657 30.1138C434.54 41.7669 427.524 52.6072 420.1 61.3227C414.002 68.5186 406.272 75.4054 396.717 79.2573C391.124 81.3864 372.522 85.9452 374.552 76.0149C375.567 71.253 380.447 68.1122 384.923 65.1746C402.713 53.5215 412.982 39.9425 421.217 22.4143C414.609 36.3996 403.121 48.7596 388.584 57.3734C382.18 61.1237 374.96 64.4677 370.794 70.1397C367.031 75.3081 367.948 81.5896 375.368 83.3124C402.514 90.9146 430.879 57.5808 437.589 38.1266ZM332.062 37.7203C336.432 47.041 348.837 54.7448 355.955 62.0381C359.106 65.2804 362.665 68.3196 365.205 71.9683C366.628 74.0975 368.662 80.7854 363.68 79.5663C360.325 78.5547 359.815 74.6012 359.612 72.1673C358.902 74.9017 359.408 78.1441 361.136 80.9843C363.88 85.4415 370.284 85.5431 372.318 81.5938C374.251 77.8435 369.881 72.8784 367.031 70.144C360.117 63.3545 353.105 56.6666 346.595 49.5765C341.002 43.4981 334.194 36.2007 334.801 28.3995C335.515 21.0047 341.511 16.5433 346.493 11.6797C348.425 9.85537 350.358 8.03101 352.29 6.30824C354.222 4.38229 356.966 2.25316 359 0.128262C352.8 4.38228 344.973 9.0469 339.787 14.1136C333.587 19.8872 327.386 28.7001 332.062 37.7203ZM303.09 37.6187C303.293 36.5055 303.293 35.2864 302.784 33.97C301.565 30.7276 298.312 28.0948 295.364 25.7625C290.587 22.0121 285.197 18.6682 279.91 15.3242C276.657 13.3983 273.71 10.9686 271.471 8.12836C269.539 6.10082 265.878 1.44044 272.287 3.06163C276.355 4.17487 280.012 6.10083 284.08 7.2183C296.481 10.4607 309.698 12.3866 322.816 11.0702C333.387 10.0586 342.233 5.09341 350.774 0.229853C344.166 3.26905 338.674 6.20665 331.561 8.1326C321.19 10.6638 310.212 10.2617 299.739 8.74213C293.64 7.73048 287.537 6.613 281.847 4.58546C277.578 3.16745 273.714 0.733558 269.14 0.026671C262.736 -0.481272 268.227 6.40983 269.853 8.43736C273.616 13.1993 279.307 16.4417 284.594 19.8872C289.78 23.3328 298.826 28.9032 299.539 34.8843C300.35 41.2674 292.319 48.2601 288.051 53.0221C283.07 58.5967 277.578 63.8624 272.801 69.5387C261.415 81.0901 269.242 82.0002 280.224 83.9262C285.308 84.8362 304.317 85.6489 309.095 77.4414C309.706 76.5314 309.604 75.6171 309.502 74.8086C308.993 70.6519 308.789 66.0931 311.231 61.128C314.586 54.1353 325.263 48.1585 322.311 40.3574C320.888 48.4633 313.669 54.6432 308.279 61.128C306.143 63.7608 303.807 66.7027 303.603 69.945C303.4 71.6678 304.517 73.289 303.807 75.0118C303.196 76.7345 300.86 78.2541 298.928 78.8637C290.081 81.5981 281.035 79.1684 275.442 77.6488C267.921 75.4181 277.171 66.9101 282.05 61.437C287.44 55.1554 294.655 49.9871 299.739 43.6039C301.259 41.6738 302.584 39.7478 303.09 37.6187ZM248.903 37.6187C249.107 36.5055 249.107 35.2864 248.598 33.97C247.379 30.7276 244.126 28.0948 241.174 25.7625C236.396 22.0121 231.007 18.6682 225.72 15.3242C222.466 13.3983 219.519 10.9686 217.281 8.12836C215.349 6.10082 211.688 1.44044 218.096 3.06163C222.161 4.17487 225.821 6.10083 229.89 7.2183C242.291 10.4607 255.507 12.3866 268.622 11.0702C279.196 10.0586 288.039 5.09341 296.579 0.229853C289.971 3.26905 284.48 6.20665 277.366 8.1326C266.995 10.6638 256.017 10.2617 245.544 8.74213C239.445 7.73048 233.343 6.613 227.652 4.58546C223.384 3.16745 219.519 0.733558 214.945 0.026671C208.541 -0.481272 214.032 6.40983 215.659 8.43736C219.421 13.1993 225.112 16.4417 230.4 19.8872C235.585 23.3328 244.631 28.9032 245.344 34.8843C246.156 41.2674 238.125 48.2601 233.857 53.0221C228.875 58.5967 223.384 63.8624 218.606 69.5387C207.22 81.0901 215.047 82.0002 226.03 83.9262C231.113 84.8362 250.122 85.6489 254.9 77.4414C255.512 76.5314 255.41 75.6171 255.308 74.8086C254.798 70.6519 254.594 66.0931 257.036 61.128C260.391 54.1353 271.064 48.1585 268.116 40.3574C266.694 48.4633 259.474 54.6432 254.085 61.128C251.948 63.7608 249.613 66.7027 249.409 69.945C249.205 71.6678 250.322 73.289 249.613 75.0118C249.001 76.7345 246.665 78.2541 244.733 78.8637C235.887 81.5981 226.841 79.1684 221.247 77.6488C213.726 75.4181 222.976 66.9101 227.856 61.437C233.245 55.1554 240.461 49.9871 245.544 43.6039C247.073 41.6738 248.398 39.7478 248.903 37.6187ZM145.411 45.1151C154.966 28.0905 167.371 15.121 185.871 6.81194C200.918 0.0224372 209.356 1.23727 211.794 8.22995C213.013 11.7771 213.42 16.0311 210.677 22.3127C207.832 28.5942 181.807 61.5259 159.744 84.4256C172.451 73.7842 217.387 21.8047 219.523 13.394C223.592 -2.51304 204.273 -3.02099 184.55 5.49129C169.503 11.976 151.713 25.2503 141.954 41.259C136.059 51.0877 133.515 63.9555 136.768 74.8001C138.395 80.1716 141.75 87.1601 148.46 82.4997C154.558 78.2457 157.608 71.8583 162.691 65.3735C162.691 65.3735 143.274 86.3473 140.832 71.2487C139.414 62.7492 141.142 52.9205 145.411 45.1151ZM96.6136 65.0772C88.3789 57.7798 76.891 39.1383 70.4867 24.1413C68.049 18.0629 64.8935 11.5781 65.1993 5.80029C65.4031 2.65951 69.3697 4.99182 71.3998 6.613C77.1925 11.5781 81.8726 17.7581 87.3596 23.028C90.1031 25.6609 92.9528 28.2979 96.2059 30.2239C99.3571 32.0483 104.135 34.1731 104.645 30.4271C104.848 29.2122 104.441 27.8958 104.033 26.4736C102.304 21.5084 99.561 16.5433 95.9001 11.9845C97.7306 14.5158 109.015 33.3647 98.9494 30.0207C96.4098 29.0091 94.0697 27.1847 91.8316 25.2587C83.9026 18.2661 76.4791 10.5665 70.0747 2.46056L74.2452 8.03524C71.7013 5.4024 69.0597 2.86692 66.1124 0.94097C57.8776 -3.61782 62.5535 10.4649 63.6746 14.3168C71.8075 40.1542 88.175 66.9058 99.561 76.125C123.654 95.376 143.376 79.7737 146.124 45.2209C140.939 76.2224 127.319 93.5517 96.6136 65.0772Z" fill="#FF503D"/>
<path d="M84.3572 57.7853L68.6181 74.0394C67.4417 75.2543 65.5221 75.2543 64.3458 74.0394C63.1694 72.8246 63.1694 70.8436 64.3458 69.6288L75.5873 58.0223C77.8934 55.6392 79.1632 52.473 79.1632 49.1037C79.1632 45.7343 77.8934 42.5681 75.5873 40.185C70.8265 35.2664 63.0759 35.2664 58.3109 40.185L45.8208 53.0826L33.3306 40.185C28.5698 35.2664 20.8192 35.2664 16.0542 40.185C13.7481 42.5681 12.4783 45.7343 12.4783 49.1037C12.4783 52.473 13.7481 55.6392 16.0542 58.0223L27.2958 69.6288C28.4722 70.8436 28.4722 72.8246 27.2958 74.0394C26.1194 75.2543 24.1998 75.2543 23.0234 74.0394L7.28436 57.7853L0.782349 64.4986L16.5214 80.7528C18.9039 83.2121 22.0296 84.4396 25.1596 84.4396C28.2895 84.4396 31.4153 83.2121 33.7978 80.7528C38.5586 75.8342 38.5586 67.8341 33.7978 62.9155L22.5562 51.309C21.9871 50.7206 21.6729 49.9375 21.6729 49.1037C21.6729 48.2698 21.9871 47.4867 22.5562 46.8983C23.7326 45.6835 25.6522 45.6835 26.8286 46.8983L45.8208 66.5092L64.8129 46.8983C65.9893 45.6835 67.9047 45.6835 69.0853 46.8983C69.6544 47.4867 69.9687 48.2698 69.9687 49.1037C69.9687 49.9375 69.6544 50.7206 69.0853 51.309L57.8437 62.9155C53.0787 67.8341 53.0787 75.8342 57.8437 80.7528C60.2262 83.2121 63.352 84.4396 66.4819 84.4396C69.6119 84.4396 72.7376 83.2121 75.1201 80.7528L90.8592 64.4986L84.3572 57.7853Z" fill="#FF503D"/>
<path d="M194.57 126V82.096H228.362V87.344H200.65V100.912H225.546V106.16H200.65V120.752H228.746V126H194.57ZM228.603 126L245.755 102.96L230.203 82.096H237.691L249.659 98.416H249.979L261.819 82.096H268.923L253.563 102.896L270.715 126H263.227L249.659 107.504H249.339L235.835 126H228.603ZM272.423 126V82.096H278.503V100.912H302.375V82.096H308.519V126H302.375V106.224H278.503V126H272.423ZM315.068 126V82.096H321.148V126H315.068ZM327.65 126V82.096H350.306C352.823 82.096 354.999 82.544 356.834 83.44C358.669 84.2933 360.077 85.5093 361.058 87.088C362.082 88.6667 362.594 90.544 362.594 92.72C362.594 94.384 362.295 95.92 361.698 97.328C361.101 98.736 360.269 99.9093 359.202 100.848C358.135 101.787 356.919 102.491 355.554 102.96V103.216C357.09 103.557 358.477 104.176 359.714 105.072C360.951 105.968 361.933 107.163 362.658 108.656C363.426 110.107 363.81 111.899 363.81 114.032C363.81 116.891 363.213 119.195 362.018 120.944C360.823 122.693 359.223 123.973 357.218 124.784C355.213 125.595 352.909 126 350.306 126H327.65ZM333.73 120.752H350.242C352.418 120.752 354.189 120.197 355.554 119.088C356.919 117.936 357.602 116.037 357.602 113.392C357.602 111.771 357.303 110.427 356.706 109.36C356.109 108.251 355.234 107.44 354.082 106.928C352.93 106.373 351.479 106.096 349.73 106.096H333.73V120.752ZM333.73 100.912H349.154C350.605 100.912 351.863 100.635 352.93 100.08C353.997 99.4827 354.829 98.672 355.426 97.648C356.066 96.5813 356.386 95.3867 356.386 94.064C356.386 91.76 355.767 90.0747 354.53 89.008C353.293 87.8987 351.65 87.344 349.602 87.344H333.73V100.912ZM367.858 126V82.096H373.938V126H367.858ZM391.192 126V87.408H376.152V82.096H412.44V87.408H397.272V126H391.192ZM414.773 126V82.096H420.853V126H414.773ZM447.067 126.768C442.502 126.768 438.576 125.936 435.291 124.272C432.048 122.608 429.531 120.091 427.739 116.72C425.99 113.349 425.115 109.125 425.115 104.048C425.115 98.928 425.99 94.704 427.739 91.376C429.531 88.0053 432.048 85.488 435.291 83.824C438.576 82.16 442.502 81.328 447.067 81.328C451.632 81.328 455.536 82.16 458.779 83.824C462.064 85.488 464.582 88.0053 466.331 91.376C468.123 94.704 469.019 98.928 469.019 104.048C469.019 109.125 468.123 113.349 466.331 116.72C464.582 120.091 462.064 122.608 458.779 124.272C455.536 125.936 451.632 126.768 447.067 126.768ZM447.067 121.52C449.456 121.52 451.611 121.2 453.531 120.56C455.494 119.92 457.136 118.917 458.459 117.552C459.824 116.144 460.87 114.395 461.595 112.304C462.32 110.171 462.683 107.653 462.683 104.752V103.408C462.683 100.464 462.32 97.9467 461.595 95.856C460.87 93.7227 459.824 91.9733 458.459 90.608C457.136 89.2 455.494 88.176 453.531 87.536C451.611 86.896 449.456 86.576 447.067 86.576C444.635 86.576 442.459 86.896 440.539 87.536C438.619 88.176 436.976 89.2 435.611 90.608C434.246 91.9733 433.2 93.7227 432.475 95.856C431.792 97.9467 431.451 100.464 431.451 103.408V104.752C431.451 107.653 431.792 110.171 432.475 112.304C433.2 114.395 434.246 116.144 435.611 117.552C436.976 118.917 438.619 119.92 440.539 120.56C442.459 121.2 444.635 121.52 447.067 121.52ZM473.313 126V82.096H479.201L500.513 111.024C500.726 111.28 501.003 111.664 501.345 112.176C501.686 112.688 502.027 113.2 502.369 113.712C502.71 114.181 502.987 114.608 503.201 114.992H503.457C503.457 114.309 503.457 113.648 503.457 113.008C503.457 112.325 503.457 111.664 503.457 111.024V82.096H509.409V126H503.841L482.273 96.56C481.974 96.0907 481.526 95.4293 480.929 94.576C480.374 93.7227 479.905 93.04 479.521 92.528H479.201C479.201 93.2107 479.201 93.8933 479.201 94.576C479.201 95.216 479.201 95.8773 479.201 96.56V126H473.313ZM6.91288 169V164.2H17.9849V133.8H6.84888V130.216C8.42754 130.088 10.0489 129.853 11.7129 129.512C13.4195 129.171 15.0835 128.637 16.7049 127.912C18.3262 127.144 19.7982 126.163 21.1209 124.968H23.6809V164.2H34.1129V169H6.91288ZM52.3199 169.768C49.2052 169.768 46.6665 169.171 44.7039 167.976C42.7412 166.781 41.3119 165.16 40.4159 163.112C39.5199 161.064 39.0719 158.76 39.0719 156.2H44.8319C44.8319 158.163 45.1092 159.805 45.6639 161.128C46.2612 162.451 47.1359 163.432 48.2879 164.072C49.4399 164.712 50.8905 165.032 52.6399 165.032C55.2425 165.032 57.2265 164.371 58.5919 163.048C59.9999 161.683 60.9812 159.72 61.5359 157.16C62.0905 154.6 62.3892 151.549 62.4319 148.008C61.8772 148.947 61.0452 149.843 59.9359 150.696C58.8265 151.507 57.5252 152.168 56.0319 152.68C54.5812 153.149 53.0239 153.384 51.3599 153.384C48.2025 153.384 45.5999 152.765 43.5519 151.528C41.5039 150.248 39.9679 148.52 38.9439 146.344C37.9625 144.168 37.4719 141.736 37.4719 139.048C37.4719 136.061 38.1119 133.48 39.3919 131.304C40.6719 129.085 42.4212 127.379 44.6399 126.184C46.8585 124.947 49.3545 124.328 52.1279 124.328C54.6452 124.328 56.9065 124.691 58.9119 125.416C60.9172 126.141 62.6025 127.315 63.9679 128.936C65.3759 130.557 66.4425 132.755 67.1679 135.528C67.8932 138.259 68.2559 141.672 68.2559 145.768C68.2559 150.248 67.8932 154.024 67.1679 157.096C66.4852 160.168 65.4612 162.643 64.0959 164.52C62.7305 166.355 61.0452 167.699 59.0399 168.552C57.0772 169.363 54.8372 169.768 52.3199 169.768ZM52.5119 148.712C54.6025 148.712 56.3305 148.264 57.6959 147.368C59.1039 146.472 60.1492 145.277 60.8319 143.784C61.5145 142.291 61.8559 140.627 61.8559 138.792C61.8559 137 61.5145 135.379 60.8319 133.928C60.1919 132.435 59.1679 131.261 57.7599 130.408C56.3945 129.512 54.6665 129.064 52.5759 129.064C50.4852 129.064 48.7572 129.533 47.3919 130.472C46.0265 131.368 45.0025 132.563 44.3199 134.056C43.6799 135.549 43.3599 137.235 43.3599 139.112C43.3599 140.861 43.6799 142.461 44.3199 143.912C44.9599 145.363 45.9412 146.536 47.2639 147.432C48.6292 148.285 50.3785 148.712 52.5119 148.712ZM75.8234 169V162.28H82.0954V169H75.8234ZM86.5974 153.96V149.416H118.597V153.96H86.5974ZM123.08 169V167.144C123.08 165.352 123.421 163.709 124.104 162.216C124.829 160.68 125.768 159.293 126.92 158.056C128.115 156.776 129.459 155.56 130.952 154.408C132.445 153.256 133.96 152.125 135.496 151.016C137.587 149.565 139.507 148.115 141.256 146.664C143.048 145.213 144.477 143.656 145.544 141.992C146.611 140.285 147.144 138.387 147.144 136.296C147.144 134.973 146.824 133.779 146.184 132.712C145.587 131.603 144.669 130.728 143.432 130.088C142.195 129.448 140.616 129.128 138.696 129.128C136.435 129.128 134.621 129.512 133.256 130.28C131.891 131.048 130.888 132.072 130.248 133.352C129.651 134.632 129.352 136.04 129.352 137.576V140.2H123.784C123.741 139.987 123.699 139.667 123.656 139.24C123.613 138.771 123.592 138.237 123.592 137.64C123.592 134.483 124.296 131.944 125.704 130.024C127.112 128.061 128.989 126.632 131.336 125.736C133.683 124.797 136.221 124.328 138.952 124.328C141.384 124.328 143.475 124.669 145.224 125.352C146.973 125.992 148.424 126.888 149.576 128.04C150.728 129.192 151.581 130.515 152.136 132.008C152.691 133.459 152.968 134.995 152.968 136.616C152.968 138.621 152.605 140.456 151.88 142.12C151.197 143.784 150.216 145.341 148.936 146.792C147.699 148.2 146.227 149.565 144.52 150.888C142.856 152.211 141.043 153.555 139.08 154.92C137.715 155.816 136.371 156.776 135.048 157.8C133.725 158.781 132.595 159.784 131.656 160.808C130.717 161.832 130.12 162.813 129.864 163.752H153.224V169H123.08ZM159.2 169V164.2H170.272V133.8H159.136V130.216C160.715 130.088 162.336 129.853 164 129.512C165.707 129.171 167.371 128.637 168.992 127.912C170.614 127.144 172.086 126.163 173.408 124.968H175.968V164.2H186.4V169H159.2ZM192.703 169V162.28H198.975V169H192.703ZM208.533 178.408V175.784C209.344 175.613 210.005 175.208 210.517 174.568C211.072 173.928 211.477 173.117 211.733 172.136C211.989 171.197 212.117 170.152 212.117 169H209.173V162.28H215.381V168.296C215.381 170.771 215.019 172.691 214.293 174.056C213.611 175.464 212.736 176.488 211.669 177.128C210.645 177.768 209.6 178.195 208.533 178.408ZM235.242 169V167.144C235.242 165.352 235.584 163.709 236.266 162.216C236.992 160.68 237.93 159.293 239.082 158.056C240.277 156.776 241.621 155.56 243.114 154.408C244.608 153.256 246.122 152.125 247.658 151.016C249.749 149.565 251.669 148.115 253.418 146.664C255.21 145.213 256.64 143.656 257.706 141.992C258.773 140.285 259.306 138.387 259.306 136.296C259.306 134.973 258.986 133.779 258.346 132.712C257.749 131.603 256.832 130.728 255.594 130.088C254.357 129.448 252.778 129.128 250.858 129.128C248.597 129.128 246.784 129.512 245.418 130.28C244.053 131.048 243.05 132.072 242.41 133.352C241.813 134.632 241.514 136.04 241.514 137.576V140.2H235.946C235.904 139.987 235.861 139.667 235.818 139.24C235.776 138.771 235.754 138.237 235.754 137.64C235.754 134.483 236.458 131.944 237.866 130.024C239.274 128.061 241.152 126.632 243.498 125.736C245.845 124.797 248.384 124.328 251.114 124.328C253.546 124.328 255.637 124.669 257.386 125.352C259.136 125.992 260.586 126.888 261.738 128.04C262.89 129.192 263.744 130.515 264.298 132.008C264.853 133.459 265.13 134.995 265.13 136.616C265.13 138.621 264.768 140.456 264.042 142.12C263.36 143.784 262.378 145.341 261.098 146.792C259.861 148.2 258.389 149.565 256.682 150.888C255.018 152.211 253.205 153.555 251.242 154.92C249.877 155.816 248.533 156.776 247.21 157.8C245.888 158.781 244.757 159.784 243.818 160.808C242.88 161.832 242.282 162.813 242.026 163.752H265.386V169H235.242ZM285.507 169.768C282.094 169.768 279.214 169.256 276.867 168.232C274.52 167.165 272.75 165.672 271.555 163.752C270.36 161.832 269.763 159.549 269.763 156.904V156.072H275.459V156.904C275.459 159.549 276.291 161.576 277.955 162.984C279.662 164.349 282.008 165.032 284.995 165.032C287.982 165.032 290.392 164.392 292.227 163.112C294.062 161.789 294.979 159.699 294.979 156.84C294.979 154.749 294.488 153.149 293.507 152.04C292.526 150.931 291.246 150.163 289.667 149.736C288.131 149.267 286.488 149.032 284.739 149.032H280.131V144.296H284.931C286.552 144.296 288.046 144.04 289.411 143.528C290.776 143.016 291.864 142.184 292.675 141.032C293.528 139.837 293.955 138.301 293.955 136.424C293.955 134.717 293.571 133.331 292.803 132.264C292.078 131.197 291.075 130.408 289.795 129.896C288.515 129.341 287.107 129.064 285.571 129.064C283.864 129.064 282.328 129.363 280.963 129.96C279.598 130.515 278.51 131.368 277.699 132.52C276.931 133.672 276.547 135.123 276.547 136.872V137.704H270.787V136.552C270.787 134.12 271.406 131.987 272.643 130.152C273.923 128.317 275.651 126.888 277.827 125.864C280.046 124.84 282.584 124.328 285.443 124.328C288.259 124.328 290.734 124.776 292.867 125.672C295.043 126.568 296.75 127.891 297.987 129.64C299.224 131.389 299.843 133.544 299.843 136.104C299.843 137.981 299.502 139.581 298.819 140.904C298.136 142.184 297.24 143.251 296.131 144.104C295.022 144.957 293.827 145.661 292.547 146.216V146.472C294.894 147.155 296.856 148.392 298.435 150.184C300.014 151.976 300.803 154.323 300.803 157.224C300.803 159.827 300.142 162.067 298.819 163.944C297.539 165.821 295.726 167.272 293.379 168.296C291.075 169.277 288.451 169.768 285.507 169.768ZM308.178 169V162.28H314.45V169H308.178ZM318.952 172.136L333.224 121.96H337.768L323.496 172.136H318.952ZM339.685 169V167.144C339.685 165.352 340.026 163.709 340.709 162.216C341.434 160.68 342.373 159.293 343.525 158.056C344.72 156.776 346.064 155.56 347.557 154.408C349.05 153.256 350.565 152.125 352.101 151.016C354.192 149.565 356.112 148.115 357.861 146.664C359.653 145.213 361.082 143.656 362.149 141.992C363.216 140.285 363.749 138.387 363.749 136.296C363.749 134.973 363.429 133.779 362.789 132.712C362.192 131.603 361.274 130.728 360.037 130.088C358.8 129.448 357.221 129.128 355.301 129.128C353.04 129.128 351.226 129.512 349.861 130.28C348.496 131.048 347.493 132.072 346.853 133.352C346.256 134.632 345.957 136.04 345.957 137.576V140.2H340.389C340.346 139.987 340.304 139.667 340.261 139.24C340.218 138.771 340.197 138.237 340.197 137.64C340.197 134.483 340.901 131.944 342.309 130.024C343.717 128.061 345.594 126.632 347.941 125.736C350.288 124.797 352.826 124.328 355.557 124.328C357.989 124.328 360.08 124.669 361.829 125.352C363.578 125.992 365.029 126.888 366.181 128.04C367.333 129.192 368.186 130.515 368.741 132.008C369.296 133.459 369.573 134.995 369.573 136.616C369.573 138.621 369.21 140.456 368.485 142.12C367.802 143.784 366.821 145.341 365.541 146.792C364.304 148.2 362.832 149.565 361.125 150.888C359.461 152.211 357.648 153.555 355.685 154.92C354.32 155.816 352.976 156.776 351.653 157.8C350.33 158.781 349.2 159.784 348.261 160.808C347.322 161.832 346.725 162.813 346.469 163.752H369.829V169H339.685ZM393.725 169V158.248H373.309V153.512C375.101 150.44 376.723 147.347 378.173 144.232C379.667 141.117 380.989 137.917 382.141 134.632C383.336 131.347 384.317 127.912 385.085 124.328H391.101C390.547 126.675 389.864 129.085 389.053 131.56C388.243 133.992 387.347 136.36 386.365 138.664C385.384 140.968 384.403 143.123 383.421 145.128C382.483 147.133 381.587 148.861 380.733 150.312C379.923 151.763 379.261 152.829 378.749 153.512H393.725V139.56C393.981 138.877 394.237 138.173 394.493 137.448C394.792 136.68 395.069 135.912 395.325 135.144C395.581 134.333 395.816 133.587 396.029 132.904C396.243 132.179 396.413 131.496 396.541 130.856H399.357V153.512H405.181V158.248H399.357V169H393.725ZM411.433 169V162.28H417.705V169H411.433ZM450.558 169.768C447.614 169.768 445.076 169.299 442.942 168.36C440.852 167.379 439.252 165.971 438.142 164.136C437.076 162.259 436.542 159.912 436.542 157.096V155.176H442.622V157.416C442.622 159.72 443.305 161.491 444.67 162.728C446.036 163.923 447.998 164.52 450.558 164.52C453.161 164.52 455.145 163.688 456.51 162.024C457.918 160.36 458.622 157.885 458.622 154.6V125.096H464.702V154.28C464.702 157.736 464.148 160.616 463.038 162.92C461.929 165.224 460.308 166.952 458.174 168.104C456.084 169.213 453.545 169.768 450.558 169.768ZM483.62 169.768C480.378 169.768 477.775 168.936 475.812 167.272C473.85 165.608 472.868 162.707 472.868 158.568V135.336H478.5V157.8C478.5 159.208 478.671 160.36 479.012 161.256C479.354 162.152 479.844 162.856 480.484 163.368C481.124 163.88 481.871 164.243 482.724 164.456C483.62 164.669 484.58 164.776 485.604 164.776C487.226 164.776 488.719 164.392 490.084 163.624C491.45 162.856 492.559 161.747 493.412 160.296C494.308 158.803 494.756 157.075 494.756 155.112V135.336H500.388V169H495.844L495.332 163.944H494.884C493.988 165.309 492.964 166.419 491.812 167.272C490.703 168.125 489.444 168.744 488.036 169.128C486.671 169.555 485.199 169.768 483.62 169.768ZM507.846 169V122.728H513.478V169H507.846ZM523.821 180.648C522.797 180.648 521.901 180.563 521.133 180.392C520.408 180.264 519.917 180.179 519.661 180.136V176.04H522.477C523.501 176.04 524.504 175.827 525.485 175.4C526.466 174.973 527.384 174.248 528.237 173.224C529.09 172.2 529.816 170.792 530.413 169L517.357 135.336H523.245L529.965 152.68C530.264 153.491 530.605 154.493 530.989 155.688C531.416 156.84 531.821 158.035 532.205 159.272C532.632 160.509 532.973 161.597 533.229 162.536H533.613C533.784 161.853 533.997 161.085 534.253 160.232C534.509 159.379 534.765 158.504 535.021 157.608C535.32 156.669 535.597 155.795 535.853 154.984C536.152 154.131 536.386 153.384 536.557 152.744L542.253 135.336H547.949L536.557 168.04C535.917 169.875 535.213 171.56 534.445 173.096C533.677 174.675 532.824 176.019 531.885 177.128C530.946 178.237 529.816 179.091 528.493 179.688C527.17 180.328 525.613 180.648 523.821 180.648ZM562.79 169V167.144C562.79 165.352 563.131 163.709 563.814 162.216C564.539 160.68 565.478 159.293 566.63 158.056C567.825 156.776 569.169 155.56 570.662 154.408C572.155 153.256 573.67 152.125 575.206 151.016C577.297 149.565 579.217 148.115 580.966 146.664C582.758 145.213 584.187 143.656 585.254 141.992C586.321 140.285 586.854 138.387 586.854 136.296C586.854 134.973 586.534 133.779 585.894 132.712C585.297 131.603 584.379 130.728 583.142 130.088C581.905 129.448 580.326 129.128 578.406 129.128C576.145 129.128 574.331 129.512 572.966 130.28C571.601 131.048 570.598 132.072 569.958 133.352C569.361 134.632 569.062 136.04 569.062 137.576V140.2H563.494C563.451 139.987 563.409 139.667 563.366 139.24C563.323 138.771 563.302 138.237 563.302 137.64C563.302 134.483 564.006 131.944 565.414 130.024C566.822 128.061 568.699 126.632 571.046 125.736C573.393 124.797 575.931 124.328 578.662 124.328C581.094 124.328 583.185 124.669 584.934 125.352C586.683 125.992 588.134 126.888 589.286 128.04C590.438 129.192 591.291 130.515 591.846 132.008C592.401 133.459 592.678 134.995 592.678 136.616C592.678 138.621 592.315 140.456 591.59 142.12C590.907 143.784 589.926 145.341 588.646 146.792C587.409 148.2 585.937 149.565 584.23 150.888C582.566 152.211 580.753 153.555 578.79 154.92C577.425 155.816 576.081 156.776 574.758 157.8C573.435 158.781 572.305 159.784 571.366 160.808C570.427 161.832 569.83 162.813 569.574 163.752H592.934V169H562.79ZM612.99 169.768C610.601 169.768 608.468 169.427 606.59 168.744C604.713 168.019 603.113 166.803 601.79 165.096C600.468 163.347 599.465 161.021 598.782 158.12C598.1 155.176 597.758 151.485 597.758 147.048C597.758 142.611 598.1 138.941 598.782 136.04C599.465 133.096 600.468 130.771 601.79 129.064C603.113 127.315 604.713 126.099 606.59 125.416C608.468 124.691 610.601 124.328 612.99 124.328C615.38 124.328 617.492 124.691 619.326 125.416C621.204 126.099 622.804 127.315 624.126 129.064C625.449 130.771 626.452 133.096 627.134 136.04C627.817 138.941 628.158 142.611 628.158 147.048C628.158 151.485 627.817 155.176 627.134 158.12C626.452 161.021 625.449 163.347 624.126 165.096C622.804 166.803 621.204 168.019 619.326 168.744C617.492 169.427 615.38 169.768 612.99 169.768ZM612.99 165.032C615.422 165.032 617.3 164.413 618.622 163.176C619.988 161.939 620.926 160.104 621.438 157.672C621.993 155.24 622.27 152.211 622.27 148.584V145.64C622.27 141.971 621.993 138.92 621.438 136.488C620.926 134.013 619.988 132.157 618.622 130.92C617.3 129.683 615.422 129.064 612.99 129.064C610.558 129.064 608.66 129.683 607.294 130.92C605.929 132.157 604.969 133.992 604.414 136.424C603.902 138.856 603.646 141.907 603.646 145.576V148.456C603.646 152.083 603.902 155.133 604.414 157.608C604.969 160.083 605.929 161.939 607.294 163.176C608.66 164.413 610.558 165.032 612.99 165.032ZM633.23 169V167.144C633.23 165.352 633.571 163.709 634.254 162.216C634.979 160.68 635.918 159.293 637.07 158.056C638.265 156.776 639.609 155.56 641.102 154.408C642.595 153.256 644.11 152.125 645.646 151.016C647.737 149.565 649.657 148.115 651.406 146.664C653.198 145.213 654.627 143.656 655.694 141.992C656.761 140.285 657.294 138.387 657.294 136.296C657.294 134.973 656.974 133.779 656.334 132.712C655.737 131.603 654.819 130.728 653.582 130.088C652.345 129.448 650.766 129.128 648.846 129.128C646.585 129.128 644.771 129.512 643.406 130.28C642.041 131.048 641.038 132.072 640.398 133.352C639.801 134.632 639.502 136.04 639.502 137.576V140.2H633.934C633.891 139.987 633.849 139.667 633.806 139.24C633.763 138.771 633.742 138.237 633.742 137.64C633.742 134.483 634.446 131.944 635.854 130.024C637.262 128.061 639.139 126.632 641.486 125.736C643.833 124.797 646.371 124.328 649.102 124.328C651.534 124.328 653.625 124.669 655.374 125.352C657.123 125.992 658.574 126.888 659.726 128.04C660.878 129.192 661.731 130.515 662.286 132.008C662.841 133.459 663.118 134.995 663.118 136.616C663.118 138.621 662.755 140.456 662.03 142.12C661.347 143.784 660.366 145.341 659.086 146.792C657.849 148.2 656.377 149.565 654.67 150.888C653.006 152.211 651.193 153.555 649.23 154.92C647.865 155.816 646.521 156.776 645.198 157.8C643.875 158.781 642.745 159.784 641.806 160.808C640.867 161.832 640.27 162.813 640.014 163.752H663.374V169H633.23ZM668.262 169V167.144C668.262 165.352 668.604 163.709 669.286 162.216C670.012 160.68 670.95 159.293 672.102 158.056C673.297 156.776 674.641 155.56 676.134 154.408C677.628 153.256 679.142 152.125 680.678 151.016C682.769 149.565 684.689 148.115 686.438 146.664C688.23 145.213 689.66 143.656 690.726 141.992C691.793 140.285 692.326 138.387 692.326 136.296C692.326 134.973 692.006 133.779 691.366 132.712C690.769 131.603 689.852 130.728 688.614 130.088C687.377 129.448 685.798 129.128 683.878 129.128C681.617 129.128 679.804 129.512 678.438 130.28C677.073 131.048 676.07 132.072 675.43 133.352C674.833 134.632 674.534 136.04 674.534 137.576V140.2H668.966C668.924 139.987 668.881 139.667 668.838 139.24C668.796 138.771 668.774 138.237 668.774 137.64C668.774 134.483 669.478 131.944 670.886 130.024C672.294 128.061 674.172 126.632 676.518 125.736C678.865 124.797 681.404 124.328 684.134 124.328C686.566 124.328 688.657 124.669 690.406 125.352C692.156 125.992 693.606 126.888 694.758 128.04C695.91 129.192 696.764 130.515 697.318 132.008C697.873 133.459 698.15 134.995 698.15 136.616C698.15 138.621 697.788 140.456 697.062 142.12C696.38 143.784 695.398 145.341 694.118 146.792C692.881 148.2 691.409 149.565 689.702 150.888C688.038 152.211 686.225 153.555 684.262 154.92C682.897 155.816 681.553 156.776 680.23 157.8C678.908 158.781 677.777 159.784 676.838 160.808C675.9 161.832 675.302 162.813 675.046 163.752H698.406V169H668.262Z" fill="#FF503D"/>
</svg>
