<svg width="1924" height="7661" viewBox="0 0 1924 7661" fill="none" xmlns="http://www.w3.org/2000/svg">
<path d="M1499.6 121.177C1535.17 198.316 1615.19 290.021 1654.23 259.664C1673.95 247.141 1692.61 212.791 1709.6 166.916C1718.29 144.908 1726.49 117.093 1736.19 103.298C1757.81 77.7063 1762.77 186.473 1763.43 259.664C1764.36 349.554 1762.01 439.354 1759.52 528.245C1740.51 1117.36 1710.28 1700.94 1702.64 2296.37C1701 3309.57 1702.46 4324.04 1693.89 5336.79C1692.58 5456.04 1690.96 5575.38 1687.55 5694.36C1684.18 5813.24 1677.7 5929.86 1671.17 6045.75C1651.28 6392.51 1627.95 6737.1 1594.94 7063.94C1580.11 7204.11 1556.11 7425.36 1525.94 7501.91C1525.15 7503.68 1524.38 7505.5 1523.58 7507.17L1521.14 7511.76L1518.61 7515.57L1516.19 7518.61C1497.88 7540.75 1474.05 7565.48 1455.97 7532.13C1452.71 7525.78 1449.61 7516.48 1447.17 7503.95C1444.09 7488.39 1442.32 7467.61 1442.29 7446.78C1442.26 7432.94 1444.1 7420.14 1446 7410.98C1463.93 7332.07 1514.08 7275.26 1539.35 7249.67C1565.43 7224.03 1592.16 7207.56 1618.91 7214C1706.96 7231.38 1794.73 7335.34 1871.81 7528.14C1887.72 7568.43 1903.15 7613.08 1917.97 7660.95C1903.02 7613.85 1887.51 7570.11 1871.49 7530.63C1794.2 7342.19 1706.61 7241.09 1618.81 7227.34C1592.29 7221.85 1565.93 7238.73 1540.09 7264.91C1519.18 7285.88 1455.82 7359.61 1446.74 7438.93C1446.24 7444.74 1446.44 7450.46 1446.61 7456.35C1447.08 7469.33 1448.35 7481.63 1450.32 7491.52C1454.41 7511.99 1460.65 7521.88 1466.71 7525.82C1479.54 7533.81 1492.78 7523.65 1505.38 7510.4C1510.04 7504.95 1514.92 7499.82 1519.5 7492.65C1532.96 7467.52 1542.84 7414.93 1551.56 7363.74C1567.19 7268.36 1579.26 7161.77 1590.28 7054.32C1622.92 6728.57 1645.96 6385.07 1665.57 6039.35C1667.93 5998.28 1670.39 5950.82 1672.62 5909.17C1686.07 5663.32 1687.27 5408.8 1689.53 5156.83C1695.54 4203.75 1695.56 3248.68 1697.43 2295.46C1704.96 1758.98 1730.01 1231.39 1750.19 702.671C1754.53 585.328 1758.77 467.532 1760.4 348.874C1760.99 290.339 1761.44 229.898 1757.66 173.586C1755.84 146.587 1752.17 120.859 1745.99 112.374C1739.79 104.887 1733.41 117.002 1727.87 130.206C1716.26 158.703 1705.06 192.235 1692.86 216.376C1677.65 247.549 1661.15 266.017 1644.48 271.371C1621.13 276.408 1597.88 256.397 1575.18 233.8C1549.41 205.258 1523.43 174.176 1499.58 120.995L1499.6 121.177Z" fill="#FF503D"/>
<path d="M4.16153 394C2.91634 496.278 10.1647 583.581 29.5208 642.162C56.5707 721.888 92.0939 711.859 121.502 663.988C131.677 648.242 141.132 625.055 150.385 600.597C164.345 563.117 178.113 523.503 191.03 479.035C193.177 471.593 195.272 463.834 197.277 455.666C199.23 447.408 201.377 439.195 202.45 427.896C201.66 439.739 199.676 449.268 197.935 458.525C192.377 485.841 186.019 509.527 179.621 532.669C166.643 578.181 153.169 620.971 138.712 656.864C114.143 715.308 85.2302 742.987 57.6539 718.847C21.665 686.585 -2.7123 562.436 4.16153 394Z" fill="#FF503D"/>
<path d="M4.16153 419C2.91634 521.278 10.1647 608.581 29.5208 667.162C56.5707 746.888 92.0939 736.859 121.502 688.988C131.677 673.242 141.132 650.055 150.385 625.597C164.345 588.117 178.113 548.503 191.03 504.035C193.177 496.593 195.272 488.834 197.277 480.666C199.23 472.408 201.377 464.195 202.45 452.896C201.66 464.739 199.676 474.268 197.935 483.525C192.377 510.841 186.019 534.527 179.621 557.669C166.643 603.181 153.169 645.971 138.712 681.864C114.143 740.308 85.2302 767.987 57.6539 743.847C21.665 711.585 -2.7123 587.436 4.16153 419Z" fill="black"/>
<path d="M200.817 449C198.869 566.741 210.208 667.244 240.487 734.681C282.801 826.46 338.37 814.916 384.374 759.807C400.289 741.68 415.08 714.988 429.555 686.832C451.393 643.685 472.93 598.083 493.137 546.891C496.494 538.324 499.772 529.392 502.908 519.989C505.964 510.482 509.321 501.027 511 488.021C509.765 501.654 506.661 512.624 503.937 523.28C495.243 554.726 485.298 581.994 475.289 608.634C454.987 661.027 433.91 710.286 411.295 751.605C372.861 818.886 327.633 850.75 284.495 822.96C228.198 785.82 190.064 642.901 200.817 449Z" fill="black"/>
<path d="M202.805 586C200.87 890.164 212.136 1149.8 242.221 1324.01C284.264 1561.11 339.477 1531.28 385.186 1388.92C400.999 1342.09 415.695 1273.13 430.077 1200.4C451.775 1088.94 473.174 971.13 493.251 838.885C496.587 816.754 499.844 793.679 502.96 769.389C505.996 744.829 509.332 720.404 511 686.803C509.773 722.024 506.689 750.362 503.982 777.89C495.344 859.127 485.463 929.567 475.518 998.389C455.347 1133.74 434.404 1260.99 411.935 1367.73C373.747 1541.54 328.808 1623.85 285.947 1552.06C230.011 1456.12 192.122 1086.91 202.805 586Z" fill="black"/>
<path d="M200.817 431C198.869 545.368 210.208 642.992 240.487 708.497C282.801 797.647 338.37 786.434 384.374 732.903C400.289 715.296 415.08 689.368 429.555 662.019C451.393 620.108 472.93 575.812 493.137 526.087C496.494 517.765 499.772 509.089 502.908 499.956C505.964 490.721 509.321 481.537 511 468.903C509.765 482.146 506.661 492.801 503.937 503.152C495.243 533.698 485.298 560.184 475.289 586.062C454.987 636.954 433.91 684.802 411.295 724.937C372.861 790.29 327.633 821.242 284.495 794.248C228.198 758.172 190.064 619.347 200.817 431Z" fill="#FF503D"/>
<path d="M135.847 410.777C137.73 615.786 130.117 819.48 124.539 1022.31C121.988 1108.48 119.487 1202.27 117.402 1289.03C115.782 1361.54 114.061 1445.35 113.14 1518.32C111.986 1604.85 111.216 1699.64 111.409 1786.44C113.271 2136.88 119.345 2510.37 122.231 2859.86C131.17 3574.31 131.058 4293.15 150.232 5003.88C151.973 5054.11 153.998 5104.25 156.974 5152.71C159.262 5187.88 161.712 5223.73 166.764 5251.95C171.876 5280.26 179.195 5270.92 183.68 5242.65C186.758 5224.23 188.883 5201.13 190.625 5177.71C194.036 5130.43 195.95 5080.25 197.448 5030.02C205.233 4725.72 202.358 4417.67 201.072 4111.69C195.97 3293.47 184.875 2473.89 193.591 1655.22C196.77 1246.47 204.544 836.768 199.452 427.748C202.024 580.892 202.439 734.717 201.862 888.224C199.179 1450.8 191.607 2013.6 195.049 2576.4C197.539 3088.15 203.36 3599.31 206.832 4110.97C208.29 4418.44 211.165 4726.99 203.411 5033.51C201.882 5084.65 199.979 5135.88 196.375 5186.15C194.472 5211.7 192.214 5236.88 188.529 5258.98C183.69 5289.84 173.759 5310.71 165.863 5284.89C161.874 5272.19 159.313 5253.4 157.187 5234.39C154.545 5210.07 152.733 5185.07 151.174 5159.93C142.528 5009.91 139.937 4855.14 136.849 4701.77C133.194 4497.44 130.836 4292.88 128.699 4088.19C121.826 3391.26 115.934 2636.97 108.787 1940.22C108.513 1888.95 107.957 1837.67 108.189 1786.4C108.129 1699.37 109.09 1604.26 110.447 1517.5C111.54 1444.53 113.443 1360.59 115.235 1287.94C117.513 1201.32 120.226 1107.62 122.959 1021.36C128.942 818.754 137.082 615.877 135.847 410.777V410.777Z" fill="#FF503D"/>
<path d="M1556.25 2319C1560.96 2484.32 1541.93 2648.59 1527.99 2812.16C1521.62 2881.64 1515.37 2957.28 1510.16 3027.25C1506.11 3085.72 1501.81 3153.31 1499.51 3212.15C1496.63 3281.93 1494.7 3358.37 1495.18 3428.37C1499.84 3710.97 1515.02 4012.17 1522.23 4294C1544.56 4870.15 1544.29 5449.84 1592.2 6022.99C1596.55 6063.5 1601.61 6103.93 1609.05 6143.01C1614.76 6171.37 1620.89 6200.28 1633.51 6223.04C1646.28 6245.88 1664.57 6238.34 1675.78 6215.54C1683.47 6200.68 1688.78 6182.06 1693.13 6163.18C1701.66 6125.05 1706.44 6084.58 1710.18 6044.07C1729.64 5798.68 1722.45 5550.25 1719.24 5303.51C1706.49 4643.68 1678.77 3982.75 1700.55 3322.55C1708.49 2992.92 1727.92 2662.53 1715.19 2332.69C1721.62 2456.18 1722.66 2580.23 1721.21 2704.03C1714.51 3157.7 1695.59 3611.55 1704.19 4065.41C1710.41 4478.1 1724.96 4890.31 1733.63 5302.93C1737.28 5550.88 1744.46 5799.7 1725.08 6046.89C1721.26 6088.13 1716.51 6129.44 1707.5 6169.98C1702.75 6190.58 1697.11 6210.89 1687.9 6228.71C1675.81 6253.6 1650.99 6270.43 1631.26 6249.61C1621.29 6239.36 1614.89 6224.21 1609.58 6208.88C1602.97 6189.27 1598.45 6169.1 1594.55 6148.83C1572.95 6027.86 1566.47 5903.04 1558.76 5779.36C1549.62 5614.58 1543.73 5449.62 1538.39 5284.56C1521.21 4722.53 1506.49 4114.26 1488.63 3552.38C1487.95 3511.03 1486.56 3469.68 1487.14 3428.33C1486.99 3358.15 1489.39 3281.45 1492.78 3211.49C1495.51 3152.65 1500.27 3084.95 1504.75 3026.37C1510.44 2956.51 1517.22 2880.95 1524.05 2811.39C1539 2648 1559.34 2484.4 1556.25 2319V2319Z" fill="#FF503D"/>
<path d="M309.713 672C311.596 877.009 303.983 1080.7 298.405 1283.53C295.854 1369.7 293.353 1463.49 291.268 1550.25C289.648 1622.76 287.927 1706.57 287.006 1779.54C285.852 1866.07 285.082 1960.86 285.275 2047.67C287.138 2398.11 293.212 2771.6 296.097 3121.08C305.036 3835.53 304.924 4554.38 324.098 5265.1C325.84 5315.33 327.864 5365.47 330.841 5413.94C333.128 5449.1 335.578 5484.95 340.63 5513.17C345.742 5541.49 353.062 5532.14 357.546 5503.87C360.624 5485.45 362.75 5462.35 364.491 5438.94C367.902 5391.66 369.816 5341.47 371.314 5291.24C379.099 4986.95 376.224 4678.89 374.938 4372.92C369.836 3554.7 358.741 2735.11 367.457 1916.44C370.636 1507.69 378.411 1097.99 373.319 688.971C375.89 842.115 376.305 995.94 375.728 1149.45C373.045 1712.02 365.473 2274.82 368.915 2837.62C371.405 3349.37 377.226 3860.53 380.699 4372.19C382.156 4679.66 385.031 4988.22 377.277 5294.73C375.748 5345.87 373.845 5397.1 370.241 5447.38C368.338 5472.92 366.08 5498.11 362.395 5520.21C357.556 5551.06 347.625 5571.93 339.729 5546.12C335.74 5533.41 333.179 5514.62 331.053 5495.61C328.411 5471.29 326.599 5446.29 325.04 5421.15C316.394 5271.14 313.803 5116.36 310.715 4962.99C307.061 4758.66 304.702 4554.1 302.566 4349.41C295.692 3652.48 289.8 2898.2 282.653 2201.45C282.38 2150.17 281.823 2098.9 282.056 2047.62C281.995 1960.59 282.957 1865.48 284.313 1778.72C285.406 1705.76 287.31 1621.81 289.102 1549.16C291.379 1462.54 294.092 1368.84 296.826 1282.58C302.809 1079.98 310.948 877.1 309.713 672V672Z" fill="#FF503D"/>
<path d="M692.046 1058C697.688 1263.02 674.875 1466.72 658.16 1669.56C650.515 1755.74 643.022 1849.53 636.773 1936.3C631.919 2008.81 626.762 2092.62 624.001 2165.59C620.543 2252.13 618.237 2346.92 618.814 2433.73C624.395 2784.19 642.597 3157.7 651.243 3507.2C678.03 4221.68 677.697 4940.56 735.154 5651.32C740.372 5701.56 746.439 5751.7 755.358 5800.17C762.214 5835.33 769.556 5871.18 784.693 5899.41C800.013 5927.72 821.947 5918.38 835.386 5890.1C844.608 5871.68 850.979 5848.58 856.197 5825.17C866.42 5777.88 872.154 5727.7 876.643 5677.46C899.972 5373.16 891.357 5065.08 887.504 4759.1C872.214 3940.84 838.965 3121.21 865.085 2302.5C874.611 1893.73 897.909 1484.01 882.65 1074.97C890.356 1228.12 891.599 1381.96 889.87 1535.47C881.831 2098.07 859.139 2660.9 869.454 3223.72C876.916 3735.5 894.36 4246.69 904.765 4758.37C909.134 5065.85 917.749 5374.43 894.512 5680.96C889.931 5732.1 884.228 5783.33 873.428 5833.61C867.724 5859.16 860.959 5884.34 849.917 5906.44C835.416 5937.3 805.656 5958.17 781.994 5932.35C770.041 5919.65 762.366 5900.86 755.995 5881.85C748.077 5857.52 742.647 5832.52 737.975 5807.38C712.068 5657.36 704.302 5502.57 695.049 5349.2C684.098 5144.86 677.029 4940.29 670.628 4735.59C650.03 4038.63 632.374 3284.3 610.956 2587.52C610.137 2536.24 608.469 2484.97 609.167 2433.69C608.985 2346.65 611.867 2251.54 615.932 2164.78C619.208 2091.81 624.911 2007.86 630.281 1935.21C637.106 1848.58 645.237 1754.87 653.427 1668.61C671.356 1466 695.747 1263.11 692.046 1058V1058Z" fill="#FF503D"/>
<path d="M528.255 309C535.135 518.299 507.32 726.254 486.939 933.33C477.618 1021.3 468.482 1117.06 460.862 1205.63C454.944 1279.66 448.656 1365.22 445.29 1439.71C441.074 1528.06 438.263 1624.83 438.965 1713.45C445.771 2071.23 467.964 2452.53 478.506 2809.33C511.167 3538.73 510.76 4272.62 580.816 4998.21C587.178 5049.5 594.575 5100.69 605.45 5150.16C613.809 5186.06 622.76 5222.66 641.218 5251.48C659.897 5280.38 686.639 5270.84 703.025 5241.98C714.27 5223.17 722.037 5199.59 728.399 5175.69C740.864 5127.42 747.855 5076.18 753.329 5024.9C781.773 4714.24 771.269 4399.73 766.571 4087.36C747.929 3252.02 707.39 2415.29 739.237 1579.48C750.851 1162.18 779.258 743.905 760.653 326.326C770.048 482.675 771.565 639.718 769.456 796.438C759.654 1370.78 731.987 1945.36 744.563 2519.93C753.662 3042.39 774.931 3564.25 787.618 4086.62C792.944 4400.52 803.448 4715.54 775.115 5028.47C769.53 5080.67 762.576 5132.98 749.409 5184.3C742.455 5210.39 734.206 5236.1 720.743 5258.66C703.062 5290.16 666.777 5311.47 637.926 5285.11C623.352 5272.14 613.994 5252.96 606.227 5233.55C596.573 5208.72 589.952 5183.19 584.256 5157.53C552.668 5004.38 543.199 4846.36 531.917 4689.78C518.564 4481.17 509.946 4272.34 502.141 4063.36C477.026 3351.85 455.499 2581.78 429.385 1870.45C428.387 1818.1 426.352 1765.75 427.203 1713.41C426.981 1624.55 430.495 1527.46 435.451 1438.88C439.446 1364.39 446.4 1278.69 452.947 1204.52C461.269 1116.08 471.182 1020.42 481.169 932.357C503.029 725.513 532.768 518.392 528.255 309V309Z" fill="#FF503D"/>
<path d="M691.972 1393C695.027 1604.94 682.673 1815.52 673.622 2025.22C669.482 2114.3 665.424 2211.26 662.04 2300.96C659.411 2375.92 656.618 2462.56 655.124 2538C653.251 2627.45 652.002 2725.45 652.314 2815.19C655.337 3177.48 665.194 3563.6 669.876 3924.91C684.382 4663.52 684.201 5406.68 715.316 6141.44C718.142 6193.37 721.427 6245.21 726.257 6295.31C729.97 6331.66 733.945 6368.72 742.143 6397.9C750.439 6427.17 762.317 6417.51 769.594 6388.28C774.588 6369.24 778.038 6345.36 780.864 6321.16C786.4 6272.28 789.505 6220.39 791.936 6168.46C804.57 5853.88 799.904 5535.4 797.818 5219.08C789.538 4373.19 771.533 3525.89 785.677 2679.53C790.836 2256.95 803.453 1833.4 795.189 1410.54C799.362 1568.87 800.035 1727.9 799.099 1886.59C794.746 2468.19 782.457 3050.03 788.043 3631.86C792.084 4160.92 801.53 4689.37 807.165 5218.33C809.531 5536.2 814.196 5855.19 801.613 6172.07C799.132 6224.94 796.043 6277.9 790.195 6329.88C787.107 6356.29 783.443 6382.33 777.463 6405.17C769.611 6437.07 753.495 6458.65 740.681 6431.96C734.208 6418.82 730.052 6399.4 726.602 6379.75C722.314 6354.6 719.374 6328.76 716.844 6302.77C702.814 6147.68 698.609 5987.67 693.598 5829.11C687.668 5617.87 683.84 5406.4 680.373 5194.78C669.219 4474.28 659.658 3694.49 648.059 2974.17C647.616 2921.16 646.712 2868.15 647.09 2815.14C646.992 2725.17 648.552 2626.84 650.754 2537.15C652.528 2461.72 655.616 2374.93 658.524 2299.83C662.22 2210.28 666.623 2113.41 671.059 2024.23C680.768 1814.77 693.976 1605.04 691.972 1393V1393Z" fill="#FF503D"/>
<path d="M322.473 410.777C327.97 882.598 327.625 1355.92 321.956 1827.74C320.013 1983.56 317.472 2143.78 314.404 2299.24C311.681 2430.24 308.846 2561.38 303.542 2690.97C302.428 2716.97 301.193 2742.97 299.553 2768.84C297.69 2795.65 295.888 2824.06 291.434 2845.34C285.674 2872.47 276.998 2859.27 271.673 2837.9C230.349 2666.33 188.084 1926.2 174.518 1657.67C153.603 1248.1 139.876 830.778 135.847 410.823C136.677 463.187 137.628 515.46 138.712 567.733C146.021 933.374 160.194 1295.84 179.135 1652.86C195.686 1957.87 214.344 2262.17 241.09 2552.48C245.615 2600.58 250.485 2647.95 255.941 2693.69C260.74 2732.67 274.072 2841.57 284.793 2832.91C286.777 2830.05 288.174 2822.02 289.278 2813.26C291.323 2797.06 292.568 2779.5 293.783 2761.44C302.479 2609.79 304.989 2452.47 308.695 2296.92C321.794 1670.28 326.178 1040.01 322.473 410.868V410.777Z" fill="#FF503D"/>
<path d="M596.423 828C613.991 1463.94 612.891 2101.91 594.773 2737.85C588.561 2947.88 580.441 3163.83 570.638 3373.37C561.935 3549.94 552.876 3726.69 535.924 3901.37C532.365 3936.41 528.418 3971.46 523.177 4006.32C517.224 4042.46 511.465 4080.75 497.23 4109.43C478.821 4146.01 451.095 4128.21 434.077 4099.4C302.013 3868.16 166.94 2870.57 123.588 2508.62C56.7467 1956.59 12.8764 1394.1 0 828.061C2.65293 898.64 5.69409 969.097 9.15584 1039.55C32.5145 1532.38 77.8084 2020.93 138.34 2502.14C191.237 2913.26 250.863 3323.4 336.339 3714.71C350.801 3779.54 366.363 3843.39 383.801 3905.04C399.136 3957.57 441.745 4104.36 476.006 4092.68C482.347 4088.82 486.812 4078 490.338 4066.19C496.874 4044.36 500.853 4020.69 504.736 3996.35C532.527 3791.95 540.55 3579.91 552.391 3370.25C594.256 2525.63 608.264 1676.11 596.423 828.122V828Z" fill="#FF503D"/>
<path d="M322.473 410.779C288.164 582.119 291.788 983.244 296.617 1203.27C304.716 1554.07 326.451 1896.12 357.773 2219.42C353.734 2184.58 349.836 2149.36 346.131 2113.7C336.909 2024.44 328.678 1933.06 321.612 1839.94C297.751 1522.99 284.54 1186.21 289.257 851.109C291.89 706.178 298.318 516.097 322.473 410.779V410.779Z" fill="#FF503D"/>
<path d="M345.169 405.106C345.686 1591.33 364.637 2777.82 402.954 3951.52L410.739 4186.29L405.93 4069.54C404.371 4030.61 402.863 3991.58 401.365 3952.61C356.73 2782.45 337.688 1591.74 345.169 405.061V405.106Z" fill="#FF503D"/>
<path d="M345.169 405.107C362.318 444.856 381.401 464.595 400.2 481.701C428.283 505.524 458.005 514.372 485.227 469.041C494.237 454.884 502.842 436.189 511.437 416.587C520.356 397.347 528.971 373.389 539.357 371.438C570.163 373.706 569.262 618.238 568.695 716.523C567.48 879.65 561.092 1040.28 554.371 1200.14C551.566 1270.79 549.319 1352.79 547.618 1424.25C535.065 2005.34 554.198 2591.73 585.672 3155.35C592.182 3272.28 601.252 3414.81 608.723 3530.66C597.122 3370.66 585.115 3195.33 576.045 3032.38C546.171 2508.74 529.912 1961.64 541.625 1421.53C543.376 1349.52 545.695 1266.84 548.56 1195.6C551.526 1121.23 554.948 1046.91 557.438 972.262C561.184 858.777 576.389 396.757 539.388 390.949C530.256 392.311 521.52 415.18 513.209 432.423C504.533 451.39 495.654 469.904 486.371 483.653C458.512 527.985 428.263 515.779 399.897 488.599C381.108 469.586 362.086 447.397 345.179 404.97L345.169 405.107Z" fill="#FF503D"/>
<path d="M575.934 388.135C582.757 398.254 596.849 419.717 603.338 429.655C618.412 453.795 633.496 481.02 648.185 509.199C665.951 542.55 683.708 576.355 701.667 607.483C708.399 618.873 715.131 630.035 722.066 637.386C727.34 643.194 732.938 641.152 738.273 637.795C756.981 625.362 774.637 584.886 788.668 528.529C798.488 487.554 812.235 414.907 802.912 354.466C797.87 321.387 789.498 297.02 780.873 288.217C765.89 273.788 761.061 321.115 759.705 379.196C758.399 435.372 759.279 493.045 760.069 549.674C760.96 606.984 762.094 664.385 763.086 721.876C771.387 1125.09 764.635 1534.52 741.037 1925.89C734.639 2023.94 719.515 2263.26 693.133 2271.65C672.795 2274.24 656.324 2146.32 647.679 2076.4C623.737 1870.3 609.807 1645.32 598.742 1419.71C590.764 1250.24 585.176 1078.53 582.504 905.74C581.572 848.249 581.299 790.621 580.388 733.13C578.869 618.238 575.559 503.345 575.954 388.09C575.832 445.718 577.29 503.118 578.414 560.428C579.598 617.784 580.884 675.094 581.987 732.54C583.131 789.941 583.627 847.523 584.792 904.878C591.989 1247.56 607.731 1589.33 636.168 1909.64C645.694 2011.42 660.88 2165.33 681.005 2228.86C688.901 2253 696.777 2252.37 703.914 2222.28C712.843 2184.71 718.411 2131.48 723.22 2080.94C728.049 2028.39 731.916 1973.8 735.327 1918.67C754.856 1586.02 763.612 1239.62 759.877 895.758C758.834 780.684 756.496 666.155 754.795 551.126C754.056 492.909 753.205 434.873 754.683 376.383C755.757 338.857 758.075 294.888 766.143 274.605C779.962 242.524 798.903 290.713 806.667 343.395C815.404 398.935 807.204 466.818 798.336 510.424C781.318 595.867 749.784 666.744 723.847 652.678C722.633 651.634 720.223 649.048 719.029 647.505C706.567 630.943 694.834 607.347 682.918 584.841C659.26 539.782 635.996 490.595 612.105 448.123C601.748 429.246 586.533 405.333 575.964 387.954L575.934 388.135Z" fill="#FF503D"/>
<path d="M728.873 662.045C726.4 872.763 726.131 1083.84 726.379 1294.78C726.303 1434.95 727.744 1575.38 732.732 1714.01C738.742 1872.22 749.192 2073.71 773.574 2199.39C778.53 2222.47 784.508 2246.32 792.227 2246C809.976 2246.9 821.297 2208.75 828.425 2142.51C835.262 2079.97 838.595 2010.72 841.573 1942.95C844.228 1883.56 846.798 1795.46 848.937 1734.67C861.698 1389.95 864.483 1032.59 864.547 683.688C865.633 818.092 866.267 971.799 865.891 1105.89C865.472 1317.1 861.322 1528.63 854.538 1737.82C849.733 1874.51 846.421 2089.24 827.511 2201.5C822.297 2232.15 814.373 2256.8 805.558 2265.94C799.924 2271.74 794.28 2274.71 788.604 2271.97C785.056 2269.54 781.605 2262.83 778.702 2254.69C746.697 2156.64 732.485 1875.59 727.163 1717.34C719.928 1507.35 722.035 1294.87 723.25 1083.57C724.379 942.912 725.862 802.208 728.883 662L728.873 662.045Z" fill="#FF503D"/>
<path d="M870.314 647.065C865.883 951.173 865.402 1255.8 865.845 1560.23C865.71 1762.52 868.291 1965.19 877.229 2165.27C887.996 2393.59 906.718 2684.39 950.404 2865.76C959.284 2899.08 969.993 2933.49 983.823 2933.04C1015.62 2934.34 1035.91 2879.27 1048.68 2783.68C1060.93 2693.42 1066.9 2593.47 1072.23 2495.68C1076.99 2409.96 1081.6 2282.81 1085.43 2195.08C1108.29 1697.58 1113.28 1181.84 1113.4 678.301C1115.34 872.273 1116.48 1094.1 1115.8 1287.62C1115.05 1592.44 1107.62 1897.72 1095.46 2199.62C1086.85 2396.91 1080.92 2706.79 1047.04 2868.82C1037.7 2913.04 1023.5 2948.63 1007.71 2961.81C997.615 2970.18 987.502 2974.47 977.332 2970.51C970.976 2967 964.792 2957.33 959.592 2945.57C902.25 2804.07 876.786 2398.46 867.251 2170.07C854.288 1867 858.063 1560.36 860.24 1255.41C862.262 1052.41 864.92 849.349 870.333 647L870.314 647.065Z" fill="#FF503D"/>
<path d="M1000.17 647.08C995.075 1020.38 994.521 1394.32 995.031 1768.02C994.875 2016.33 997.847 2265.12 1008.14 2510.72C1020.53 2790.99 1042.08 3147.95 1092.37 3370.59C1102.59 3411.48 1114.92 3453.73 1130.84 3453.18C1167.45 3454.77 1190.8 3387.17 1205.5 3269.83C1219.6 3159.03 1226.48 3036.35 1232.62 2916.3C1238.1 2811.08 1243.4 2655 1247.81 2547.3C1274.13 1936.61 1279.87 1303.53 1280 685.422C1282.24 923.528 1283.55 1195.83 1282.78 1433.38C1281.91 1807.56 1273.35 2182.29 1259.36 2552.88C1249.45 2795.06 1242.62 3175.45 1203.62 3374.34C1192.86 3428.62 1176.52 3472.31 1158.34 3488.49C1146.72 3498.77 1135.08 3504.03 1123.37 3499.17C1116.05 3494.87 1108.94 3482.99 1102.95 3468.56C1036.94 3294.86 1007.63 2796.97 996.649 2516.61C981.727 2144.59 986.073 1768.18 988.578 1393.84C990.906 1144.66 993.966 895.389 1000.2 647L1000.17 647.08Z" fill="#FF503D"/>
<path d="M768.856 280.777C821.913 588.064 901.645 858.233 989.76 901.34C1078.29 940.954 1190.74 840.582 1269.62 656.31C1295.81 594.644 1321.08 518.049 1341.1 419.674C1346.9 392.312 1352.62 358.053 1357.41 327.061L1351.66 366.765C1348.55 385.641 1345.44 405.335 1341.92 422.895C1322.45 524.991 1297.55 606.396 1271.38 671.012C1197.75 852.289 1099.49 947.261 1015.65 935.872C943.536 931.969 876.944 780.958 824.717 564.65C804.035 478.844 784.811 385.052 768.846 280.777H768.856Z" fill="#FF503D"/>
<path d="M769.017 1020C856.188 1358.2 987.186 1655.54 1131.96 1702.99C1277.41 1746.58 1462.16 1636.11 1591.76 1433.31C1634.79 1365.44 1676.31 1281.14 1709.2 1172.87C1718.72 1142.75 1728.12 1105.05 1736 1070.94L1726.55 1114.64C1721.43 1135.41 1716.32 1157.09 1710.55 1176.41C1678.55 1288.78 1637.65 1378.37 1594.66 1449.49C1473.67 1649 1312.24 1753.52 1174.49 1740.99C1056.01 1736.69 946.602 1570.49 860.795 1332.43C826.815 1237.99 795.23 1134.76 769 1020H769.017Z" fill="#FF503D"/>
<path d="M454.022 1088C568.507 1813.58 740.552 2451.51 930.684 2553.3C1121.71 2646.83 1364.36 2409.83 1534.57 1974.72C1591.08 1829.11 1645.6 1648.25 1688.81 1415.97C1701.3 1351.36 1713.65 1270.47 1724 1197.29L1711.59 1291.04C1704.86 1335.61 1698.16 1382.11 1690.58 1423.57C1648.55 1664.65 1594.84 1856.86 1538.37 2009.44C1379.47 2437.47 1167.45 2661.73 986.54 2634.83C830.944 2625.62 687.252 2269.04 574.558 1758.29C529.93 1555.68 488.448 1334.22 454 1088H454.022Z" fill="black"/>
<path d="M-106.988 2125C-45.0578 4532.66 48.009 6649.49 150.86 6987.25C254.195 7297.63 385.453 6511.19 477.527 5067.38C508.097 4584.21 537.591 3984.07 560.964 3213.28C567.723 2998.9 574.399 2730.47 580 2487.64L573.288 2798.73C569.649 2946.63 566.021 3100.93 561.921 3238.52C539.186 4038.47 510.129 4676.29 479.583 5182.57C393.63 6602.92 278.939 7347.05 181.075 7257.81C96.9057 7227.23 19.1767 6044.02 -41.7847 4349.21C-65.9258 3676.9 -88.3654 2942.01 -107 2125H-106.988Z" fill="black"/>
<path d="M209.013 1609C279.147 1953.29 384.541 2255.99 501.016 2304.28C618.039 2348.67 766.683 2236.21 870.954 2029.75C905.572 1960.66 938.973 1874.84 965.442 1764.62C973.096 1733.96 980.657 1695.58 987 1660.86L979.399 1705.34C975.278 1726.49 971.17 1748.55 966.526 1768.23C940.78 1882.62 907.874 1973.83 873.282 2046.22C775.944 2249.33 646.061 2355.73 535.233 2342.97C439.915 2338.6 351.89 2169.41 282.854 1927.05C255.515 1830.91 230.103 1725.83 209 1609H209.013Z" fill="#FF503D"/>
<path d="M1464.92 176.184C1458.58 196.557 1450.87 208.627 1443.67 221.424C1431.42 241.707 1418.82 259.63 1406.35 276.374C1346.06 355.737 1284.82 419.626 1223.16 473.624C1202.48 490.458 1181.73 508.427 1160.65 512.375C1107.98 522.267 1055.26 469.812 1007.2 374.931C997.657 355.51 988.201 334.818 979.455 308.999C983.97 320.842 988.677 331.052 993.435 340.672C1002.94 360.047 1012.69 376.837 1022.53 392.31C1076.42 475.03 1134.71 513.6 1191.24 471.4C1263.26 415.633 1334.7 343.621 1405.56 263.578C1418.13 249.148 1430.85 233.312 1443.25 215.933C1450.55 204.68 1458.35 194.833 1464.92 176.184V176.184Z" fill="#FF503D"/>
<path d="M979.444 309.045C975.628 1771.38 988.646 3238.75 1018.53 4695.05C1013.77 4513.27 1009.33 4331.27 1005.27 4149.13C1004.22 4103.62 1003.32 4058.02 1002.38 4012.46C977.116 2782.99 969.058 1542.87 979.444 309.09V309.045Z" fill="#FF503D"/>
<path d="M1077.39 468.452C1066.76 455.248 1056.05 442.452 1045.08 436.507C1037.99 433.013 1030.18 431.788 1023.92 449.213C1017.74 467.272 1014.79 499.308 1011.84 528.53L1007.44 573.951C982.988 814.172 975.111 1082.8 979.556 1344.8C983.352 1574.54 995.753 1800.1 1013.21 2016.41C1023.66 2139.7 1032.73 2267.3 1039.25 2396.12C1054.29 2686.48 1061.12 2984.06 1065.31 3281C1069.08 3577.62 1069.76 3876.1 1068.33 4173.09C1065.35 4800.05 1054.27 5427.38 1039.28 6050.66C1036.51 6169.5 1032.4 6326.19 1029.25 6444.3C1032.09 6312.85 1034.99 6181.44 1037.68 6049.94C1052.24 5327.19 1063.52 4601.71 1063.13 3875.79C1062.4 3398.98 1057.86 2917.72 1036.15 2449.98C1034.1 2405.47 1031.11 2350.15 1028.53 2306C1023.09 2210.08 1015.92 2117.1 1008.31 2024.22C1000.89 1930.56 994.447 1835.27 989.244 1738.62C971.842 1417.81 967.924 1074.27 989.912 755.955C995.257 676.955 1002.89 600.723 1010.54 525.853C1013.67 495.995 1016.84 463.325 1023.35 445.038C1029.85 427.341 1037.92 429.247 1045.18 433.467C1056.14 440.41 1066.81 454.295 1077.39 468.452V468.452Z" fill="#FF503D"/>
<path d="M1242.61 917.845C1231.98 904.64 1221.27 891.844 1210.3 885.9C1203.21 882.406 1195.4 881.181 1189.14 898.605C1182.96 916.665 1180 948.7 1177.06 977.923L1172.65 1023.34C1148.21 1263.56 1140.33 1532.19 1144.77 1794.19C1148.57 2023.93 1160.97 2249.5 1178.42 2465.8C1188.88 2589.09 1197.95 2716.69 1204.47 2845.51C1219.51 3135.87 1226.34 3433.45 1230.53 3730.39C1234.3 4027.01 1234.97 4325.5 1233.55 4622.48C1230.57 5249.44 1219.49 5876.77 1204.5 6500.05C1201.73 6618.89 1197.62 6775.58 1194.47 6893.69C1197.3 6762.24 1200.21 6630.83 1202.9 6499.33C1217.46 5776.58 1228.74 5051.11 1228.35 4325.18C1227.61 3848.37 1223.08 3367.11 1201.36 2899.37C1199.32 2854.86 1196.33 2799.55 1193.75 2755.39C1188.31 2659.47 1181.14 2566.49 1173.52 2473.61C1166.1 2379.95 1159.67 2284.66 1154.46 2188.01C1137.06 1867.2 1133.14 1523.66 1155.13 1205.35C1160.48 1126.35 1168.11 1050.12 1175.76 975.245C1178.89 945.388 1182.06 912.717 1188.57 894.431C1195.07 876.734 1203.14 878.64 1210.39 882.86C1221.36 889.802 1232.03 903.687 1242.61 917.845V917.845Z" fill="#FF503D"/>
<path d="M1279 940.306C1268.33 926.941 1257.58 913.989 1246.57 907.972C1239.45 904.435 1231.61 903.195 1225.32 920.832C1219.12 939.112 1216.16 971.538 1213.2 1001.12L1208.78 1047.09C1184.24 1290.24 1176.33 1562.14 1180.79 1827.34C1184.6 2059.88 1197.05 2288.19 1214.57 2507.14C1225.07 2631.92 1234.17 2761.08 1240.72 2891.47C1255.81 3185.37 1262.67 3486.58 1266.88 3787.14C1270.66 4087.38 1271.34 4389.5 1269.9 4690.1C1266.92 5324.71 1255.79 5959.68 1240.75 6590.56C1237.97 6710.85 1233.84 6869.45 1230.68 6989C1233.52 6855.94 1236.44 6722.93 1239.14 6589.83C1253.76 5858.27 1265.08 5123.95 1264.69 4389.18C1263.95 3906.55 1259.4 3419.43 1237.6 2945.99C1235.55 2900.93 1232.55 2844.94 1229.96 2800.26C1224.49 2703.16 1217.3 2609.05 1209.65 2515.03C1202.2 2420.24 1195.74 2323.79 1190.52 2225.96C1173.05 1901.24 1169.12 1553.51 1191.19 1231.31C1196.55 1151.35 1204.22 1074.19 1211.9 998.406C1215.04 968.185 1218.22 935.116 1224.75 916.607C1231.28 898.694 1239.38 900.623 1246.66 904.895C1257.67 911.922 1268.38 925.976 1279 940.306V940.306Z" fill="#FF503D"/>
<path d="M1619 470.238C1608.33 456.199 1597.58 442.593 1586.57 436.273C1579.45 432.558 1571.61 431.255 1565.32 449.782C1559.12 468.984 1556.16 503.045 1553.2 534.115L1548.78 582.409C1524.24 837.822 1516.33 1123.44 1520.79 1402.01C1524.6 1646.27 1537.05 1886.1 1554.57 2116.09C1565.07 2247.17 1574.17 2382.84 1580.72 2519.81C1595.81 2828.53 1602.67 3144.93 1606.88 3460.65C1610.66 3776.03 1611.34 4093.39 1609.9 4409.16C1606.92 5075.77 1595.79 5742.77 1580.75 6405.47C1577.97 6531.82 1573.84 6698.42 1570.68 6824C1573.52 6684.23 1576.44 6544.51 1579.14 6404.7C1593.76 5636.24 1605.08 4864.89 1604.69 4093.05C1603.95 3586.09 1599.4 3074.39 1577.6 2577.08C1575.55 2529.75 1572.55 2470.94 1569.96 2423.99C1564.49 2322 1557.3 2223.15 1549.65 2124.39C1542.2 2024.81 1535.74 1923.49 1530.52 1820.73C1513.05 1479.63 1509.12 1114.37 1531.19 775.923C1536.55 691.927 1544.22 610.874 1551.9 531.269C1555.04 499.523 1558.22 464.786 1564.75 445.343C1571.28 426.527 1579.38 428.554 1586.66 433.041C1597.67 440.422 1608.38 455.185 1619 470.238V470.238Z" fill="#FF503D"/>
<path d="M1890.61 37.8447C1879.98 24.6402 1869.27 11.8442 1858.3 5.89993C1851.21 2.40597 1843.4 1.18079 1837.14 18.6052C1830.96 36.6649 1828 68.7004 1825.06 97.9226L1820.65 143.344C1796.21 383.565 1788.33 652.191 1792.77 914.193C1796.57 1143.93 1808.97 1369.5 1826.42 1585.8C1836.88 1709.09 1845.95 1836.69 1852.47 1965.51C1867.51 2255.87 1874.34 2553.45 1878.53 2850.39C1882.3 3147.01 1882.97 3445.5 1881.55 3742.48C1878.57 4369.44 1867.49 4996.77 1852.5 5620.05C1849.73 5738.89 1845.62 5895.58 1842.47 6013.69C1845.3 5882.24 1848.21 5750.83 1850.9 5619.33C1865.46 4896.58 1876.74 4171.11 1876.35 3445.18C1875.61 2968.37 1871.08 2487.11 1849.36 2019.37C1847.32 1974.86 1844.33 1919.55 1841.75 1875.39C1836.31 1779.47 1829.14 1686.49 1821.52 1593.61C1814.1 1499.95 1807.67 1404.66 1802.46 1308.01C1785.06 987.203 1781.14 643.661 1803.13 325.347C1808.48 246.348 1816.11 170.116 1823.76 95.2454C1826.89 65.388 1830.06 32.7172 1836.57 14.4306C1843.07 -3.26605 1851.14 -1.36024 1858.39 2.85974C1869.36 9.80228 1880.03 23.6873 1890.61 37.8447V37.8447Z" fill="#FF503D"/>
<path d="M344.607 37.8447C333.978 24.6402 323.267 11.8442 312.303 5.89993C305.207 2.40597 297.402 1.18079 291.135 18.6052C284.96 36.6649 282.004 68.7004 279.058 97.9226L274.654 143.344C250.206 383.565 242.33 652.191 246.774 914.193C250.57 1143.93 262.972 1369.5 280.425 1585.8C290.882 1709.09 299.953 1836.69 306.472 1965.51C321.505 2255.87 328.339 2553.45 332.53 2850.39C336.296 3147.01 336.974 3445.5 335.547 3742.48C332.571 4369.44 321.485 4996.77 306.503 5620.05C303.729 5738.89 299.619 5895.58 296.47 6013.69C299.305 5882.24 302.21 5750.83 304.903 5619.33C319.461 4896.58 330.738 4171.11 330.353 3445.18C329.614 2968.37 325.079 2487.11 303.364 2019.37C301.319 1974.86 298.333 1919.55 295.751 1875.39C290.305 1779.47 283.138 1686.49 275.525 1593.61C268.104 1499.95 261.666 1404.66 256.462 1308.01C239.06 987.203 235.142 643.661 257.131 325.347C262.476 246.348 270.109 170.116 277.762 95.2454C280.89 65.388 284.059 32.7172 290.568 14.4306C297.068 -3.26605 305.136 -1.36024 312.394 2.85974C323.358 9.80228 334.028 23.6873 344.607 37.8447V37.8447Z" fill="#FF503D"/>
<path d="M979.444 309.045C1025.59 606.485 1084.56 875.52 1167.8 933.056C1207.26 961.87 1248.2 945.853 1286.9 902.564C1291.56 896.846 1296.67 889.858 1301.34 883.96C1304.61 879.195 1312.21 867.17 1315.55 862.134C1318.68 856.371 1326.47 842.985 1329.51 837.222C1333.69 828.374 1339.07 818.527 1343.19 809.225C1403.54 676.954 1453.74 460.192 1489.47 206.586C1493.06 181.039 1496.5 155.038 1499.6 128.176C1493.91 183.081 1487.01 235.354 1479.63 286.039C1449.96 488.961 1410.48 665.61 1363.57 787.898C1358.65 801.239 1350.83 819.616 1345.63 831.505C1341.47 841.17 1336.02 851.516 1331.77 860.682C1328.72 866.535 1320.8 880.783 1317.59 886.637C1314.13 891.991 1306.46 904.152 1303.11 909.098C1298.34 915.133 1293.16 922.438 1288.4 928.337C1285.12 931.831 1276.68 940.907 1273.5 944.264C1265.74 950.708 1256.15 959.148 1248.31 962.869C1124.04 1036.15 1043.05 761.762 979.424 309.045H979.444Z" fill="#FF503D"/>
<path d="M1464.92 176.184C1452.75 493.544 1442.48 817.938 1435.94 1138.38C1428.24 1493.18 1424.85 1854.69 1424.78 2211.3C1425 2274.37 1425.41 2391.22 1425.6 2453.88C1425.95 2497.8 1426.96 2616.24 1427.35 2661.66C1427.94 2742.2 1429.97 2856.91 1430.98 2938.41C1432.19 3017.77 1434.77 3134.57 1436.21 3214.66C1438.24 3292.48 1441.07 3412.99 1443.17 3490.18C1445.65 3567.23 1449.12 3688.29 1451.78 3764.8C1453.28 3804.68 1457.83 3930.15 1459.32 3970.08C1466.96 4175.36 1476.53 4379.23 1486.99 4581.93C1476.37 4403.01 1467.17 4222.41 1458.99 4040.91C1455.68 3965.18 1451.04 3845.02 1447.86 3767.61C1441.16 3587.83 1435.54 3397.88 1430.92 3217.06C1429.31 3136.06 1426.6 3019.99 1425.24 2940.27C1422.68 2785.9 1420.69 2609.07 1419.55 2454.52C1415.23 1691.43 1430.72 923.619 1464.92 176.139V176.184Z" fill="#FF503D"/>
<path d="M1375.08 176.045C1362.9 493.406 1352.64 817.799 1346.1 1138.24C1338.39 1493.04 1335 1854.55 1334.93 2211.16C1335.16 2274.23 1335.57 2391.08 1335.75 2453.74C1336.11 2497.67 1337.12 2616.1 1337.5 2661.52C1338.1 2742.06 1340.13 2856.77 1341.14 2938.27C1342.34 3017.63 1344.92 3134.43 1346.37 3214.52C1348.4 3292.34 1351.23 3412.86 1353.33 3490.04C1355.81 3567.09 1359.28 3688.15 1361.94 3764.66C1363.44 3804.54 1367.99 3930.01 1369.47 3969.94C1377.12 4175.22 1386.68 4379.09 1397.15 4581.79C1386.53 4402.87 1377.33 4222.27 1369.15 4040.77C1365.84 3965.04 1361.19 3844.88 1358.01 3767.47C1351.32 3587.69 1345.69 3397.75 1341.08 3216.92C1339.47 3135.93 1336.75 3019.85 1335.4 2940.13C1332.84 2785.76 1330.84 2608.93 1329.71 2454.38C1325.39 1691.29 1340.88 923.48 1375.08 176V176.045Z" fill="#FF503D"/>
<path d="M-43.9941 696C-13.3445 1772.89 32.7148 2719.7 83.6162 2870.77C134.757 3009.59 199.718 2657.84 245.286 2012.06C260.415 1795.95 275.011 1527.52 286.579 1182.76C289.924 1086.87 293.228 966.812 296 858.201L292.678 997.344C290.877 1063.5 289.082 1132.51 287.053 1194.05C275.801 1551.85 261.42 1837.13 246.303 2063.58C203.765 2698.87 147.003 3031.7 98.5697 2991.78C56.914 2978.11 18.4455 2448.89 -11.7246 1690.83C-23.6722 1390.13 -34.7776 1061.43 -44 696H-43.9941Z" fill="black"/>
<path d="M71.0032 708C87.4999 2164.77 112.291 3445.58 139.688 3649.94C167.214 3837.74 202.177 3361.9 226.704 2488.31C234.847 2195.97 242.703 1832.85 248.929 1366.47C250.73 1236.76 252.508 1074.34 254 927.42L252.212 1115.65C251.243 1205.14 250.276 1298.5 249.184 1381.75C243.128 1865.76 235.388 2251.68 227.251 2558.01C204.356 3417.4 173.805 3867.64 147.736 3813.65C125.315 3795.15 104.61 3079.24 88.3718 2053.77C81.9412 1646.99 75.9638 1202.34 71 708H71.0032Z" fill="black"/>
<path d="M523.082 176.045C510.904 493.406 500.638 817.799 494.099 1138.24C486.395 1493.04 483.003 1854.55 482.933 2211.16C483.155 2274.23 483.57 2391.08 483.752 2453.74C484.107 2497.67 485.119 2616.1 485.504 2661.52C486.101 2742.06 488.126 2856.77 489.138 2938.27C490.343 3017.63 492.924 3134.43 494.372 3214.52C496.397 3292.34 499.231 3412.86 501.327 3490.04C503.807 3567.09 507.279 3688.15 509.942 3764.66C511.44 3804.54 515.986 3930.01 517.474 3969.94C525.117 4175.22 534.684 4379.09 545.151 4581.79C534.532 4402.87 525.329 4222.27 517.15 4040.77C513.839 3965.04 509.193 3844.88 506.014 3767.47C499.322 3587.69 493.694 3397.75 489.077 3216.92C487.468 3135.93 484.755 3019.85 483.398 2940.13C480.837 2785.76 478.843 2608.93 477.709 2454.38C473.386 1691.29 488.875 923.48 523.082 176V176.045Z" fill="#FF503D"/>
<path d="M1767.56 1105.99C1789.87 898.481 1807.36 667.244 1803.89 434.238C1801.51 284.815 1788.53 152.453 1758.82 74.633C1741.5 27.8956 1721.86 15.9617 1713.79 117.332C1709.48 170.83 1708.64 229.592 1708.11 286.494C1707.1 461.645 1710.8 636.389 1709.69 812.13C1707.14 1186.21 1690.09 1675.86 1650.71 2007.34C1640.97 2085.38 1620.9 2202.23 1603.05 2089.65C1591.79 2015.1 1586.33 1928.02 1580.33 1843.8C1548.53 1337.54 1528.83 816.577 1506.62 300.651L1499.6 128.177C1520.6 580.44 1541.51 1050.72 1565.33 1498.85C1574.8 1667.65 1583.52 1839.63 1598.51 2000.39C1602.49 2038.15 1610.22 2118.46 1620.95 2109.79C1626.52 2104.44 1631.19 2084.16 1634.95 2064.6C1638.99 2043.27 1642.46 2019.18 1645.63 1994.31C1664.29 1841.76 1674.86 1671.73 1683.9 1503.03C1695.58 1276.28 1702.42 1044.14 1703.97 811.495C1705.32 636.661 1701.76 461.056 1703.06 285.632C1703.74 226.28 1704.71 166.429 1709.4 109.799C1718.81 -2.73319 1741.06 3.12031 1761 58.5245C1792.35 142.697 1805.49 285.995 1807.02 444.357C1808.71 676.229 1790.93 902.202 1767.58 1105.99H1767.56Z" fill="#FF503D"/>
<path d="M1847.95 1711.02C1890.83 1450.01 1924.45 1159.14 1917.77 866.047C1913.2 678.091 1888.26 511.595 1831.16 413.707C1797.87 354.917 1760.13 339.906 1744.63 467.417C1736.34 534.712 1734.72 608.627 1733.71 680.203C1731.77 900.522 1738.89 1120.33 1736.75 1341.39C1731.84 1811.94 1699.08 2427.86 1623.4 2844.82C1604.69 2942.99 1566.11 3089.96 1531.81 2948.35C1510.18 2854.58 1499.67 2745.04 1488.15 2639.11C1427.04 2002.29 1389.19 1346.98 1346.5 698.011L1333 481.059C1373.37 1049.95 1413.54 1641.5 1459.32 2205.2C1477.53 2417.53 1494.28 2633.86 1523.09 2836.08C1530.74 2883.57 1545.58 2984.6 1566.21 2973.7C1576.91 2966.96 1585.89 2941.45 1593.11 2916.85C1600.87 2890.02 1607.55 2859.71 1613.64 2828.43C1649.49 2636.54 1669.82 2422.67 1687.18 2210.45C1709.63 1925.24 1722.78 1633.23 1725.75 1340.59C1728.34 1120.67 1721.51 899.78 1724 679.118C1725.31 604.461 1727.18 529.175 1736.18 457.942C1754.28 316.39 1797.04 323.753 1835.34 393.444C1895.6 499.323 1920.85 679.575 1923.79 878.776C1927.04 1170.44 1892.87 1454.69 1847.99 1711.02H1847.95Z" fill="#FF503D"/>
<path d="M2149.2 3800.81C2204.34 3355.07 2247.58 2858.34 2238.99 2357.81C2233.12 2036.83 2201.04 1752.5 2127.61 1585.33C2084.81 1484.94 2036.27 1459.3 2016.33 1677.06C2005.68 1791.98 2003.6 1918.21 2002.3 2040.44C1999.8 2416.69 2008.95 2792.06 2006.2 3169.57C1999.9 3973.15 1957.77 5024.99 1860.45 5737.03C1836.38 5904.69 1786.77 6155.68 1742.66 5913.85C1714.84 5753.7 1701.33 5566.65 1686.52 5385.74C1607.94 4298.22 1559.25 3179.13 1504.36 2070.85L1487 1700.35C1538.91 2671.87 1590.57 3682.09 1649.44 4644.74C1672.86 5007.34 1694.4 5376.77 1731.45 5722.12C1741.28 5803.22 1760.37 5975.74 1786.89 5957.13C1800.65 5945.62 1812.21 5902.05 1821.49 5860.04C1831.47 5814.23 1840.06 5762.47 1847.89 5709.06C1893.99 5381.35 1920.14 5016.12 1942.45 4653.71C1971.33 4166.63 1988.24 3667.96 1992.07 3168.21C1995.39 2792.64 1986.61 2415.42 1989.81 2038.59C1991.49 1911.09 1993.89 1782.52 2005.48 1660.88C2028.74 1419.14 2083.73 1431.72 2132.99 1550.73C2210.47 1731.54 2242.95 2039.37 2246.72 2379.55C2250.9 2877.64 2206.97 3363.06 2149.25 3800.81H2149.2Z" fill="#FF503D"/>
<path d="M1535.36 900C1516.14 964.871 1621.15 1024.2 1603.85 1078C1621.07 1074.87 1638.29 1071.73 1655.51 1068.6C1710.3 1018.3 1671.13 973.542 1724 934.319C1661.12 922.88 1598.24 911.44 1535.36 900ZM1648.91 971.952C1648.94 971.432 1649.25 971.404 1649.92 970.311C1650.21 969.846 1650.57 969.283 1650.81 968.515C1651.01 967.877 1650.91 967.764 1651.15 966.598C1651.34 965.71 1651.55 964.832 1651.72 964.854C1651.94 964.884 1651.7 966.498 1652.11 968.932C1652.16 969.255 1652.27 969.846 1652.14 970.579C1652.07 970.98 1651.96 971.23 1651.68 971.885C1650.81 973.977 1650.76 974.104 1650.56 974.114C1649.96 974.154 1648.88 972.943 1648.91 971.953V971.952ZM1627.09 941.056C1627.23 940.882 1627.75 940.248 1629.27 939.642C1632.2 938.478 1635.7 938.656 1635.79 939.103C1635.86 939.405 1634.33 939.591 1631.91 941.073C1631.22 941.495 1630.68 941.89 1629.97 942.427C1627.73 944.124 1627.49 944.659 1627.08 944.551C1626.38 944.367 1626.02 942.428 1627.09 941.057V941.056ZM1619.16 947.754C1619.98 947.614 1620.07 947.415 1620.92 947.323C1621.42 947.269 1622.81 947.122 1623.22 947.611C1623.83 948.358 1622.27 950.618 1620.16 951.112C1619.86 951.179 1619.22 951.33 1618.85 951.038C1618.29 950.605 1619.02 949.72 1618.46 948.888C1617.87 948.004 1616.26 947.875 1616.29 947.726C1616.31 947.59 1617.62 948.021 1619.16 947.755L1619.16 947.754ZM1613.23 954.728C1613.29 954.818 1613.29 954.911 1613.24 955.012C1613.65 955.061 1614.09 955.077 1614.53 955.034C1616.17 954.864 1617.61 953.841 1617.62 953.842C1617.62 953.842 1618.37 955.239 1619.17 956.183C1620.49 957.744 1621.29 957.407 1622.09 958.571C1622.49 959.135 1622.61 960.087 1622.95 961.991C1623.23 963.548 1623.23 964.002 1623.64 964.274C1624.3 964.705 1625.59 964.399 1626.05 963.635C1626.5 962.881 1625.87 962.077 1626.48 961.473C1626.58 961.37 1626.8 961.194 1627.76 961.051C1629.54 960.786 1630.12 961.184 1631.12 961C1632.37 960.773 1632.18 960.027 1633.81 959.095C1635.07 958.369 1637.22 957.705 1637.71 958.194C1638.27 958.723 1636.55 960.458 1633.83 964.07C1632.84 965.412 1632.17 966.284 1630.9 966.983C1630.2 967.368 1629.07 967.992 1627.47 967.772C1626.38 967.622 1626.35 967.258 1624.56 966.649C1622 965.773 1621.87 966.458 1619.69 965.575C1618.7 965.174 1618.05 964.756 1617.26 964.874C1616.52 964.983 1616.4 965.451 1615.91 965.312C1615.21 965.114 1614.51 963.9 1614.28 962.912C1613.88 961.194 1615.02 960.909 1614.54 959.718C1614.04 958.422 1612.43 958.178 1612.18 957.051C1611.96 956.068 1613.03 955.468 1613.24 955.015C1612.32 954.907 1611.59 954.64 1611.58 954.55C1611.56 954.425 1612.94 954.326 1613.23 954.732L1613.23 954.728ZM1578.21 996.087C1577.18 996.058 1575.56 994.925 1574.6 993.553C1573.63 992.181 1573.73 991.099 1574.8 991.142C1575.88 991.183 1577.5 992.322 1578.42 993.682C1579.33 995.041 1579.24 996.116 1578.21 996.087V996.087ZM1617.3 1070.36C1616.82 1070.44 1616.76 1069.49 1617.08 1068.24C1617.4 1066.99 1618.02 1065.92 1618.54 1065.84C1619.05 1065.77 1619.24 1066.72 1618.89 1067.96C1618.53 1069.21 1617.78 1070.28 1617.3 1070.36V1070.36ZM1572.48 919.015C1570.9 918.761 1569.83 917.431 1570.17 916.041C1570.51 914.651 1572.15 913.746 1573.76 914.021C1575.36 914.296 1576.3 915.631 1575.93 916.999C1575.56 918.368 1574.05 919.269 1572.48 919.015V919.015ZM1654.44 1006.12C1654.43 1007.18 1655.19 1007.62 1655.02 1008.44C1654.75 1009.77 1652.6 1009.31 1652.51 1010.44C1652.45 1011.2 1653.4 1011.65 1653.63 1013.23C1653.74 1013.98 1653.64 1014.61 1653.6 1014.86C1653.47 1015.58 1653.28 1015.81 1652.95 1016.9C1652.84 1017.28 1652.77 1017.57 1652.63 1018.15C1651.87 1021.35 1652.06 1021.81 1651.59 1022.57C1650.97 1023.6 1650.03 1023.77 1649.31 1023.9C1648.69 1024.01 1647.79 1024.17 1647.03 1023.41C1646.81 1023.19 1646.76 1023.04 1646.25 1022.47C1645.68 1021.83 1645.23 1021.43 1645.09 1021.3C1643.86 1020.2 1643.3 1018.59 1641.44 1016.57C1639.66 1014.65 1638.46 1014.22 1638.18 1012.98C1637.98 1012.1 1638.42 1011.64 1638.14 1011.29C1637.77 1010.81 1636.48 1011.07 1635.73 1012.01C1634.98 1012.96 1635.08 1014.17 1634.58 1014.04C1634.22 1013.95 1634.11 1013.29 1633.33 1012.51C1632.6 1011.76 1631.59 1011.26 1630.81 1011.29C1629.98 1011.32 1629.77 1011.93 1629.39 1011.61C1629.1 1011.38 1629 1010.84 1628.84 1010.06C1628.59 1008.78 1628.76 1008.54 1628.59 1007.61C1628.42 1006.75 1628.12 1006.08 1627.68 1005.15C1626.94 1003.56 1626.66 1003.57 1626.2 1002.44C1625.6 1000.96 1625.93 1000.53 1625.3 999.739C1624.8 999.12 1624.46 999.212 1623.66 998.478C1623.06 997.933 1622.9 997.564 1622.01 996.234C1621.22 995.056 1620.31 993.713 1619.12 992.39C1618.18 991.344 1618.22 991.596 1617.32 990.608C1615.39 988.509 1615.56 987.782 1614 986.298C1613.71 986.024 1612.86 985.417 1611.12 984.188C1608.74 982.503 1608.25 982.256 1608.09 981.805C1607.75 980.891 1608.98 979.861 1610.48 980.068C1610.86 980.121 1611.23 980.249 1611.38 980.043C1611.62 979.719 1611 978.964 1610.6 978.04C1609.87 976.348 1610.32 975.08 1610.58 974.384C1610.9 973.535 1611.37 972.384 1612.36 972.574C1613.57 972.805 1613.98 974.753 1615.89 975.816C1616.78 976.315 1617.03 976.078 1621.1 976.345C1623.44 976.499 1623.73 976.601 1624.07 976.793C1625.66 977.69 1625.89 979.195 1627.53 979.869C1628.08 980.093 1628.71 980.196 1629.35 980.301C1630.12 980.425 1630.5 980.486 1630.77 980.391C1631.43 980.156 1631.16 979.363 1631.57 978.02C1632.01 976.614 1632.47 976.869 1633.28 975.029C1633.7 974.093 1633.67 973.847 1634 973.765C1634.98 973.527 1635.86 975.548 1638.3 976.482C1639.46 976.927 1640.5 976.947 1642.39 977.925C1642.81 978.142 1643.09 978.31 1643.12 978.51C1643.22 979.081 1641.4 979.828 1639.77 979.199C1639.13 978.949 1639.1 978.709 1638.45 978.494C1637.5 978.174 1636.19 978.241 1635.73 979.003C1635.13 979.987 1636.19 981.719 1636.84 982.793C1637.51 983.897 1637.75 983.864 1638.12 984.65C1638.84 986.149 1638.2 986.729 1638.49 988.471C1638.67 989.573 1639.35 990.798 1640.66 993.234C1641.95 995.623 1642.16 995.513 1642.62 996.808C1642.98 997.798 1643.11 998.582 1643.82 999.414C1644.05 999.687 1644.58 1000.31 1645.21 1000.46C1646.11 1000.67 1646.69 999.806 1647.56 998.585C1648.18 997.739 1648.08 997.589 1648.71 996.848C1649.48 995.95 1649.87 995.902 1649.84 995.504C1649.78 994.833 1648.62 994.043 1647.59 993.479C1646.69 993.051 1646.09 992.763 1646.09 992.754C1646.09 992.745 1646.8 993.043 1647.59 993.479C1648.11 993.728 1648.74 994.024 1649.4 994.34C1649.94 994.599 1650.19 994.714 1650.29 994.603C1650.65 994.23 1648.47 992.115 1648.55 989.952C1648.57 989.643 1648.6 989.104 1648.99 988.755C1649.82 988.015 1651.79 988.533 1652.76 989.695C1653.22 990.255 1653.36 990.847 1653.41 991.085C1653.9 993.688 1650.87 994.331 1651.24 996.7C1651.61 998.913 1654.5 1001.16 1654.68 1001.3C1655.74 1002.12 1656.46 1002.28 1656.57 1002.87C1656.77 1003.97 1654.44 1004.3 1654.44 1006.12L1654.44 1006.12ZM1654.09 984.203C1654.34 985.143 1654.84 985.761 1654.75 985.813C1654.57 985.923 1652.78 983.024 1651.5 983.146C1650.88 983.207 1650.53 983.961 1650.04 983.737C1649.85 983.651 1649.75 983.469 1649.69 983.382C1648.1 980.658 1646.64 979.391 1646.98 977.644C1647.02 977.449 1647.22 976.469 1647.73 976.489C1648.58 976.524 1649.13 979.485 1650.77 979.943C1651.35 980.104 1652.04 979.95 1652.82 979.781C1653.73 979.582 1654.06 979.329 1654.3 979.51C1654.58 979.726 1654.32 980.26 1654.12 981.737C1653.97 982.898 1653.91 983.496 1654.09 984.203H1654.09ZM1649 1065.24C1648.51 1065.32 1648.87 1064.42 1649.73 1063.23C1650.59 1062.05 1651.64 1061.02 1652.16 1060.95C1652.68 1060.87 1652.43 1061.77 1651.54 1062.96C1650.65 1064.14 1649.48 1065.17 1649 1065.24ZM1675.8 935.759C1674.23 935.505 1673.56 934.435 1674.39 933.371C1675.22 932.307 1677.24 931.67 1678.85 931.945C1680.46 932.221 1681.01 933.286 1680.15 934.329C1679.29 935.372 1677.38 936.013 1675.8 935.759V935.759ZM1682.95 999.154C1681.92 999.125 1681.15 998.229 1681.23 997.155C1681.3 996.081 1682.24 995.249 1683.32 995.29C1684.39 995.332 1685.17 996.223 1685.04 997.284C1684.92 998.344 1683.99 999.185 1682.95 999.154H1682.95Z" fill="#FF503D"/>
</svg>
